<?xml version="1.0" encoding="utf-8"?>
<!-- Generator: Adobe Illustrator 16.0.0, SVG Export Plug-In . SVG Version: 6.00 Build 0)  -->
<!DOCTYPE svg PUBLIC "-//W3C//DTD SVG 1.1//EN" "http://www.w3.org/Graphics/SVG/1.1/DTD/svg11.dtd">
<svg version="1.1" id="Layer_1" xmlns="http://www.w3.org/2000/svg" xmlns:xlink="http://www.w3.org/1999/xlink" x="0px" y="0px"
	 width="151px" height="165px" viewBox="0 0 151 165" enable-background="new 0 0 151 165" xml:space="preserve">
<g>
	<path fill="none" stroke="#8D9091" stroke-width="2" stroke-miterlimit="10" d="M140.414,114.775
		c5.24,3.019-62.88,42.242-62.88,36.207c0,6.035-68.12-33.188-62.88-36.207c-5.24,3.019-5.24-75.429,0-72.411
		c-5.24-3.018,62.88-42.241,62.88-36.206c0-6.035,68.12,33.188,62.88,36.206C145.654,39.347,145.654,117.794,140.414,114.775z"/>
</g>
<g>
	<path fill="#39D7F4" d="M79.443,70.971c5.052,0,10.104,0,15.228,0c0,2.886,0,5.666,0,8.521c-0.517,0.031-1.008,0.061-1.579,0.096
		c0,1.711,0,3.41,0,5.157c0.541,0.034,1.03,0.065,1.583,0.103c0,2.82,0,5.604,0,8.448c-0.528,0.033-1.021,0.063-1.585,0.099
		c0,1.694,0,3.365,0,5.146c0.495,0.036,1.012,0.073,1.587,0.114c0,1.675,0,3.308,0,4.992c-0.501,0-0.958,0-1.545,0
		c0-1.078,0-2.17,0-3.326c-0.647,0-1.167,0-1.817,0c0,1.089,0,2.182,0,3.322c-0.609,0-1.088,0-1.664,0c0-1.117,0-2.185,0-3.319
		c-0.611,0-1.131,0-1.783,0c0,1.079,0,2.171,0,3.319c-0.61,0-1.092,0-1.669,0c0-1.11,0-2.177,0-3.316c-0.614,0-1.134,0-1.785,0
		c0,1.078,0,2.171,0,3.316c-0.611,0-1.091,0-1.665,0c0-1.113,0-2.18,0-3.318c-6.939,0-13.785,0-20.763,0c0,1.08,0,2.17,0,3.318
		c-0.612,0-1.093,0-1.671,0c0-1.11,0-2.177,0-3.314c-0.576-0.046-1.063-0.084-1.645-0.13c0-2.771,0-5.55,0-8.435
		c0.477-0.037,0.993-0.076,1.571-0.121c0-1.713,0-3.387,0-5.137c-0.507-0.036-0.996-0.068-1.573-0.109c0-2.776,0-5.558,0-8.439
		c0.484-0.035,1-0.073,1.606-0.117c0-2.253,0-4.469,0-6.827c5.17,0,10.25,0,15.33,0c-11.041-1.768-15.967-11.298-15.228-18.789
		c0.916-9.286,8.446-15.663,17.037-15.728c8.576-0.064,15.916,6.429,17.15,14.65C95.771,59.212,90.602,69.263,79.443,70.971z
		 M77.527,38.123c-8.581,0-15.569,6.973-15.575,15.54c-0.007,8.585,6.978,15.612,15.512,15.604
		c8.709-0.008,15.64-6.972,15.63-15.702C93.084,45.096,86.055,38.124,77.527,38.123z M80.938,84.755c0-1.787,0-3.456,0-5.153
		c-6.917,0-13.761,0-20.621,0c0,1.758,0,3.453,0,5.153C67.226,84.755,74.043,84.755,80.938,84.755z M61.997,91.627
		c6.966,0,13.809,0,20.674,0c0-1.742,0-3.41,0-5.093c-6.937,0-13.804,0-20.674,0C61.997,88.271,61.997,89.914,61.997,91.627z
		 M80.969,93.418c-6.967,0-13.811,0-20.678,0c0,1.743,0,3.411,0,5.093c6.935,0,13.805,0,20.678,0
		C80.969,96.773,80.969,95.13,80.969,93.418z M82.695,72.71c-6.963,0-13.803,0-20.681,0c0,1.742,0,3.409,0,5.093
		c6.932,0,13.799,0,20.681,0C82.695,76.066,82.695,74.425,82.695,72.71z M89.582,77.861c0-1.779,0-3.447,0-5.131
		c-0.605,0-1.148,0-1.666,0c0,1.764,0,3.432,0,5.131C88.492,77.861,88.986,77.861,89.582,77.861z M93.021,77.848
		c0-1.792,0-3.46,0-5.144c-0.592,0-1.109,0-1.64,0c0,1.755,0,3.448,0,5.144C91.971,77.848,92.463,77.848,93.021,77.848z
		 M82.717,79.575c0,1.771,0,3.438,0,5.13c0.604,0,1.146,0,1.672,0c0-1.761,0-3.428,0-5.13C83.814,79.575,83.32,79.575,82.717,79.575
		z M86.188,79.597c0,1.791,0,3.459,0,5.131c0.599,0,1.117,0,1.67,0c0-1.737,0-3.407,0-5.131
		C87.281,79.597,86.762,79.597,86.188,79.597z M91.311,84.762c0-1.771,0-3.44,0-5.131c-0.604,0-1.146,0-1.67,0
		c0,1.761,0,3.43,0,5.131C90.212,84.762,90.707,84.762,91.311,84.762z M86.117,91.65c0-1.795,0-3.463,0-5.145
		c-0.596,0-1.114,0-1.643,0c0,1.762,0,3.455,0,5.145C85.063,91.65,85.555,91.65,86.117,91.65z M89.568,91.652
		c0-1.793,0-3.463,0-5.146c-0.594,0-1.112,0-1.641,0c0,1.763,0,3.455,0,5.146C88.518,91.652,89.01,91.652,89.568,91.652z
		 M91.328,91.632c0.632,0,1.152,0,1.709,0c0-1.735,0-3.403,0-5.1c-0.602,0-1.143,0-1.709,0
		C91.328,88.264,91.328,89.904,91.328,91.632z M84.391,98.557c0-1.791,0-3.457,0-5.146c-0.595,0-1.113,0-1.642,0
		c0,1.761,0,3.454,0,5.146C83.334,98.557,83.828,98.557,84.391,98.557z M87.846,98.557c0-1.791,0-3.459,0-5.148
		c-0.591,0-1.111,0-1.647,0c0,1.758,0,3.453,0,5.148C86.779,98.557,87.273,98.557,87.846,98.557z M89.633,93.389
		c0,1.791,0,3.459,0,5.151c0.592,0,1.11,0,1.646,0c0-1.761,0-3.455,0-5.151C90.693,93.389,90.199,93.389,89.633,93.389z
		 M84.477,72.681c0,1.723,0,3.443,0,5.132c0.606,0,1.125,0,1.645,0c0-1.752,0-3.42,0-5.132
		C85.557,72.681,85.063,72.681,84.477,72.681z"/>
	<path fill="#848484" d="M41.322,110.543c0-1.378-0.001-2.7,0-4.021c0-13.625,0.002-27.25,0.003-40.875
		c0.001-2.406,0.891-3.28,3.339-3.281c4.852-0.001,9.707,0.05,14.558-0.039c1.249-0.024,1.839,0.437,2.163,1.632
		c-0.386,0.018-0.758,0.049-1.13,0.049C54.97,64.01,49.686,64.008,44.4,64.014c-1.246,0.001-1.426,0.185-1.426,1.449
		c-0.003,14.129-0.004,28.258-0.003,42.387c0,0.316,0.028,0.635,0.046,1.028c22.992,0,45.944,0,69.06,0c0-0.416,0-0.832,0-1.247
		c-0.002-14.021-0.002-28.041-0.004-42.063c0-1.403-0.151-1.559-1.538-1.56c-5.213-0.002-10.426-0.001-15.639-0.001
		c-0.392,0-0.785,0-1.189,0c0.421-1.539,0.552-1.644,2.009-1.644c5.033-0.001,10.066-0.006,15.101,0
		c1.852,0.002,2.899,1.02,2.899,2.85c0.009,14.847,0.005,29.695,0.003,44.542c0,0.243-0.023,0.487-0.039,0.787
		C89.579,110.543,65.541,110.543,41.322,110.543z"/>
	<path fill="#848484" d="M29.316,112.445c32.161,0,64.249,0,96.329,0c0.595,2.641-0.104,4.014-2.541,5.062
		c-2.674,1.15-5.463,1.728-8.375,1.728c-24.946-0.004-49.892,0-74.837-0.012c-3.062,0-5.97-0.746-8.729-2.068
		C29.154,116.189,29.084,114.432,29.316,112.445z M30.938,114.098c-0.106,1.026,0.506,1.404,1.173,1.711
		c2.476,1.142,5.066,1.784,7.806,1.777c2.767-0.006,5.534-0.002,8.3-0.002c22.351,0.001,44.701,0.001,67.053,0
		c2.739,0,5.323-0.689,7.793-1.836c0.664-0.309,1.209-0.741,1.014-1.65C93.003,114.098,62.001,114.098,30.938,114.098z"/>
	<path fill="#848484" d="M110.212,107.1c-21.798,0-43.536,0-65.357,0c0-13.717,0-27.425,0-41.23c0.334-0.017,0.68-0.051,1.026-0.051
		c5.069-0.003,10.139,0.042,15.207-0.032c1.35-0.02,2.383,0.257,3.051,1.617c-5.858,0-11.709,0-17.639,0c0,12.731,0,25.33,0,38.015
		c20.641,0,41.292,0,62.034,0c0-12.588,0-25.212,0-37.914c-5.869,0-11.718,0-17.755,0c0.742-0.977,1.252-1.741,2.576-1.721
		c5.211,0.081,10.424,0.033,15.638,0.033c0.387,0,0.774,0,1.219,0C110.212,79.603,110.212,93.287,110.212,107.1z"/>
	<path fill="#39D7F4" d="M58.097,31.792c0.417-0.354,0.768-0.652,1.226-1.041c1.823,2.172,3.613,4.304,5.457,6.5
		c-0.409,0.353-0.779,0.673-1.223,1.057C61.717,36.111,59.927,33.975,58.097,31.792z"/>
	<path fill="#39D7F4" d="M91.482,38.313c-0.459-0.396-0.808-0.693-1.224-1.052c1.822-2.176,3.601-4.303,5.451-6.513
		c0.429,0.36,0.8,0.672,1.235,1.038C95.124,33.964,93.341,36.094,91.482,38.313z"/>
	<path fill="#39D7F4" d="M86.764,25.906c0.553,0.205,0.981,0.364,1.51,0.561c-0.961,2.659-1.91,5.271-2.89,7.978
		c-0.489-0.177-0.913-0.328-1.504-0.541C84.839,31.246,85.779,28.639,86.764,25.906z"/>
	<path fill="#39D7F4" d="M102.455,38.364c0.275,0.462,0.509,0.854,0.822,1.379c-2.45,1.422-4.85,2.813-7.346,4.26
		c-0.268-0.452-0.512-0.865-0.822-1.388C97.586,41.182,99.988,39.792,102.455,38.364z"/>
	<path fill="#39D7F4" d="M66.752,26.465c0.555-0.194,0.985-0.344,1.522-0.532c0.965,2.662,1.912,5.269,2.888,7.961
		c-0.536,0.202-0.96,0.361-1.494,0.563C68.698,31.801,67.747,29.193,66.752,26.465z"/>
	<path fill="#39D7F4" d="M59.939,42.615c-0.313,0.531-0.542,0.924-0.816,1.391c-2.472-1.431-4.875-2.821-7.355-4.257
		c0.303-0.508,0.55-0.925,0.825-1.385C55.057,39.79,57.439,41.169,59.939,42.615z"/>
	<path fill="#39D7F4" d="M57.208,49.306c-0.115,0.583-0.202,1.029-0.307,1.564c-2.621-0.456-5.192-0.883-7.748-1.39
		c-0.209-0.041-0.455-0.641-0.418-0.951c0.026-0.229,0.516-0.614,0.742-0.577C52.021,48.356,54.553,48.83,57.208,49.306z"/>
	<path fill="#39D7F4" d="M98.126,50.87c-0.104-0.559-0.188-1.006-0.294-1.564c2.232-0.402,4.406-0.794,6.581-1.186
		c0.354-0.064,0.708-0.115,1.058-0.196c0.622-0.146,0.827,0.175,0.912,0.726c0.079,0.52-0.055,0.802-0.615,0.896
		C103.258,49.966,100.754,50.412,98.126,50.87z"/>
	<path fill="#39D7F4" d="M82.721,52.858c1.747,0.411,1.782,1.557,1.672,2.809c-0.051,0.57-0.104,1.17,0.01,1.72
		c0.304,1.441-0.631,2.229-1.563,2.923c-0.428,0.319-1.144,0.25-1.86,0.38c-0.022,0.43-0.051,0.948-0.08,1.529
		c-0.526,0-1.008,0-1.555,0c-0.033-0.515-0.064-1.007-0.1-1.578c-0.529,0-1.053,0-1.709,0c0,1.049,0,2.14,0,3.298
		c-0.612,0-1.094,0-1.666,0c0-1.077,0-2.144,0-3.34c-1.751,0-3.418,0-5.146,0c0-0.61,0-1.091,0-1.637
		c0.522-0.032,1.015-0.063,1.585-0.099c0-3.437,0-6.86,0-10.337c-0.532-0.032-1.022-0.061-1.578-0.093c0-0.515,0-0.996,0-1.571
		c1.651,0,3.292,0,5.065,0c0-1.177,0-2.268,0-3.418c0.614,0,1.094,0,1.668,0c0,1.097,0,2.163,0,3.308c0.605,0,1.124,0,1.775,0
		c0.029-0.488,0.058-1.004,0.09-1.58c0.527,0,1.009,0,1.558,0c0.028,0.517,0.056,1.007,0.091,1.648
		c1.672-0.3,3.006,0.577,3.295,1.974C84.552,50.146,85.24,52.127,82.721,52.858z M75.835,53.717c0,1.778,0,3.444,0,5.128
		c1.746,0,3.412,0,5.12,0c0-1.733,0-3.399,0-5.128C79.229,53.717,77.563,53.717,75.835,53.717z M75.803,51.937
		c1.792,0,3.458,0,5.146,0c0-1.169,0-2.263,0-3.366c-1.76,0-3.454,0-5.146,0C75.803,49.732,75.803,50.8,75.803,51.937z"/>
</g>
</svg>
