<?xml version="1.0" encoding="utf-8"?>
<!-- Generator: Adobe Illustrator 16.0.0, SVG Export Plug-In . SVG Version: 6.00 Build 0)  -->
<!DOCTYPE svg PUBLIC "-//W3C//DTD SVG 1.1//EN" "http://www.w3.org/Graphics/SVG/1.1/DTD/svg11.dtd">
<svg version="1.1" id="Layer_1" xmlns="http://www.w3.org/2000/svg" xmlns:xlink="http://www.w3.org/1999/xlink" x="0px" y="0px"
	 width="400px" height="400px" viewBox="0 0 400 400" enable-background="new 0 0 400 400" xml:space="preserve">
<g>
	<path fill-rule="evenodd" clip-rule="evenodd" fill="#5BD7F6" d="M85.903,369.926c-1.766-1.162-3.33-1.86-4.467-2.99
		c-13.678-13.588-27.311-27.221-40.91-40.887c-3.525-3.541-3.457-5.306,0.084-8.953c2.471-2.546,5.006-5.029,7.514-7.537
		c89.76-89.761,179.52-179.523,269.282-269.283c5.554-5.553,6.472-5.561,11.927-0.108c12.874,12.865,25.75,25.728,38.613,38.602
		c4.343,4.346,4.341,5.872-0.08,10.293c-92.375,92.386-184.755,184.769-277.16,277.125C89.349,367.545,87.66,368.573,85.903,369.926
		z M85.08,356.56c69.804-69.805,139.727-139.729,209.164-209.167c-11.374-11.358-23.228-23.195-34.652-34.604
		c-69.539,69.54-139.4,139.401-209.165,209.165C61.974,333.486,73.848,345.343,85.08,356.56z M358.086,84.212
		c-11.552-11.664-23.411-23.641-34.781-35.125c-18.518,18.52-37.34,37.341-55.535,55.538c11.579,11.604,23.485,23.537,34.91,34.987
		C321.163,121.13,339.989,102.307,358.086,84.212z"/>
	<path fill-rule="evenodd" clip-rule="evenodd" fill="#5BD7F6" d="M165.974,95.212c16.298,2.451,32.134,4.862,47.98,7.195
		c3.102,0.457,6.081,1.171,6.134,4.919c0.054,3.722-2.785,4.605-5.956,5.071c-15.984,2.348-31.953,4.799-48.29,7.267
		c-1.912,12.74-3.802,25.35-5.7,37.958c-0.573,3.808-0.77,7.741-1.922,11.367c-0.614,1.934-2.683,4.358-4.484,4.745
		c-2.952,0.634-4.467-1.794-4.913-4.809c-2.324-15.694-4.74-31.375-7.128-47.06c-0.09-0.597-0.223-1.187-0.418-2.21
		c-12.714-1.913-25.47-3.828-38.227-5.753c-3.502-0.529-6.991-1.178-10.505-1.607c-3.12-0.38-5.499-1.62-5.411-5.06
		c0.082-3.173,2.383-4.261,5.297-4.689c16.152-2.377,32.289-4.848,48.927-7.362c1.622-10.708,3.253-21.474,4.885-32.241
		c0.877-5.787,1.444-11.65,2.815-17.317c0.447-1.849,2.996-3.188,4.583-4.76c1.576,1.595,4.245,3.003,4.555,4.816
		c2.678,15.635,4.927,31.342,7.311,47.027C165.618,93.451,165.78,94.185,165.974,95.212z M154.117,81.479
		c-0.34,0.012-0.679,0.023-1.018,0.035c-0.729,4.775-1.533,9.541-2.171,14.328c-0.97,7.282-1.58,7.901-8.685,8.862
		c-4.868,0.66-9.713,1.497-14.568,2.254c5.205,1.788,10.332,2.582,15.469,3.306c5.953,0.84,6.837,1.753,7.674,7.804
		c0.703,5.077,1.508,10.138,2.268,15.208c1.736-4.603,2.539-9.209,3.219-13.835c1.196-8.162,1.17-8.132,9.626-9.372
		c4.544-0.667,9.065-1.475,13.598-2.22c-5.255-1.745-10.389-2.73-15.569-3.2c-4.813-0.437-7.105-2.662-7.544-7.515
		C155.942,91.89,154.907,86.696,154.117,81.479z"/>
	<path fill-rule="evenodd" clip-rule="evenodd" fill="#5BD7F6" d="M213.751,66.859c-4.413-0.411-8.526-0.798-12.641-1.176
		c-3.029-0.279-5.599-1.323-5.712-4.807c-0.116-3.525,2.398-4.716,5.438-5.034c4.127-0.434,8.262-0.789,12.877-1.223
		c0.403-4.031,0.795-7.965,1.19-11.897c0.323-3.214,0.876-6.514,5.011-6.479c4.043,0.036,4.753,3.165,5.006,6.479
		c0.293,3.821,0.716,7.63,1.121,11.847c4.235,0.411,8.336,0.792,12.432,1.214c3.125,0.322,6.014,1.179,5.906,5.057
		c-0.106,3.808-2.973,4.606-6.118,4.881c-3.965,0.348-7.927,0.744-12.202,1.148c-0.414,4.331-0.814,8.435-1.193,12.542
		c-0.274,3.002-1.198,5.619-4.711,5.802c-3.896,0.204-4.833-2.633-5.172-5.766C214.538,75.342,214.175,71.228,213.751,66.859z"/>
	<path fill-rule="evenodd" clip-rule="evenodd" fill="#5BD7F6" d="M352.629,197.245c4.271,0.379,7.947,0.69,11.619,1.037
		c3.369,0.318,6.898,0.887,6.73,5.258c-0.152,3.979-3.398,4.563-6.69,4.792c-3.677,0.258-7.338,0.714-11.6,1.144
		c-0.437,4.231-0.854,8.456-1.315,12.676c-0.347,3.176-1.373,5.913-5.264,5.627c-3.516-0.258-4.337-2.863-4.574-5.882
		c-0.313-3.978-0.748-7.946-1.174-12.353c-4.163-0.431-8.244-0.9-12.333-1.262c-3.178-0.281-5.977-1.111-6.016-4.935
		c-0.038-3.882,2.888-4.679,5.985-4.992c3.977-0.402,7.961-0.731,12.307-1.125c0.428-4.266,0.917-8.358,1.224-12.463
		c0.246-3.28,1.349-5.933,5.024-5.962c3.52-0.029,4.51,2.677,4.815,5.667C351.789,188.584,352.182,192.7,352.629,197.245z"/>
	<path fill-rule="evenodd" clip-rule="evenodd" fill="#5BD7F6" d="M81.158,66.85c-4.627-0.429-8.769-0.784-12.903-1.208
		c-3.052-0.313-5.458-1.498-5.395-5.057c0.058-3.329,2.415-4.408,5.243-4.721c4.261-0.471,8.533-0.836,13.062-1.271
		c0.438-4.394,0.9-8.498,1.242-12.612c0.255-3.063,1.247-5.591,4.728-5.75c3.564-0.162,4.699,2.368,5.021,5.404
		c0.437,4.134,0.819,8.273,1.273,12.895c3.844,0.391,7.62,0.807,11.403,1.149c3.359,0.304,6.969,0.706,6.999,5.017
		c0.03,4.287-3.442,4.836-6.89,5.075c-3.671,0.255-7.33,0.695-11.458,1.1c-0.415,4.2-0.8,8.292-1.229,12.38
		c-0.325,3.095-1.087,6.059-4.985,5.97c-3.777-0.086-4.642-2.853-4.888-6.066C82.075,75.186,81.601,71.228,81.158,66.85z"/>
</g>
<g>
	<path fill-rule="evenodd" clip-rule="evenodd" fill="#5BD7F6" d="M-709.543-53.815c-13.898,13.896-27.574,27.576-41.252,41.252
		c-3.891,3.891-6.067,4.563-8.013,2.211c-2.946-3.563,0.155-5.598,2.281-7.73c12.749-12.791,25.52-25.561,38.321-38.299
		c0.999-0.994,2.29-1.693,3.446-2.529c-0.509-0.02-1.016-0.041-1.522-0.061c-7.785-11.318-16.546-22.098-23.174-34.059
		c-22.145-39.957-26.236-82.164-13.334-125.966c0.811-2.751,0.519-4.158-1.769-6.089c-23.216-19.608-32.359-44.591-24.905-74.027
		c7.484-29.557,27.316-47.907,57.368-53.396c27.146-4.957,50.034,4.121,68.127,24.958c1.721,1.981,2.985,2.708,5.73,1.805
		c33.775-11.11,67.623-11.075,101.42-0.076c2.603,0.848,3.955,0.418,5.768-1.648c20.26-23.104,45.661-31.752,75.188-23.404
		c29.484,8.337,47.271,28.802,51.844,59.203c4.062,27.007-5.564,49.377-26.584,66.769c-1.779,1.473-2.59,2.591-1.879,5.073
		c17.051,59.586,4.758,112.535-36.164,158.953c-0.34,0.385-0.653,0.793-1.255,1.523c3.77,3.695,7.563,7.363,11.299,11.09
		c10.322,10.291,20.62,20.607,30.928,30.914c0.455,0.457,0.935,0.893,1.356,1.379c1.691,1.941,1.921,3.973-0.028,5.816
		c-1.812,1.713-3.819,1.449-5.531-0.186c-2.984-2.852-5.865-5.811-8.783-8.729c-10.763-10.766-21.52-21.533-32.285-32.293
		c-0.814-0.814-1.678-1.576-2.511-2.357C-548.446,5.966-646.582,5.665-709.543-53.815z M-597.369-326.138
		c-84.995-0.166-154.67,69.447-154.723,154.587c-0.055,84.926,68.969,154.1,154.297,154.633
		c84.745,0.531,154.579-69.066,154.925-154.4C-442.527-256.176-512.179-325.973-597.369-326.138z M-446.166-230.992
		c14.096-9.15,28.774-33.015,24.403-60.814c-3.937-25.035-23.777-46.589-48.721-52.333c-24.464-5.634-51.926,3.79-64.791,22.384
		C-493.422-303.45-463.695-273.174-446.166-230.992z M-748.989-230.486c17.817-42.862,47.597-73.034,89.73-91.493
		c-18.417-20.339-40.579-28.608-66.588-21.607c-27.563,7.419-43.87,26.378-47.514,54.782
		C-776.376-265.299-767.396-246.077-748.989-230.486z"/>
	<path fill-rule="evenodd" clip-rule="evenodd" fill="#5BD7F6" d="M-601.397-175.443c0-12.555,0.001-24.532,0-36.509
		c-0.005-24.122-0.011-48.244-0.013-72.366c0-1.031-0.36-2.367,0.144-3.03c1.036-1.361,2.56-3.273,3.855-3.253
		c1.29,0.021,2.695,2.016,3.745,3.38c0.441,0.573,0.108,1.75,0.109,2.652c0.002,36.893,0.004,73.785-0.001,110.677
		c-0.001,5.449-0.831,6.286-6.24,6.289c-24.638,0.011-49.275,0.014-73.913,0.015c-1.16,0-2.631,0.395-3.413-0.161
		c-1.388-0.986-3.275-2.582-3.245-3.884c0.03-1.287,2.037-2.72,3.446-3.7c0.7-0.487,2.007-0.109,3.038-0.109
		c22.316-0.001,44.632,0,66.947,0C-605.28-175.443-603.623-175.443-601.397-175.443z"/>
</g>
<g>
	<path fill-rule="evenodd" clip-rule="evenodd" d="M-480.902,681.419c0-2.498,0-4.451,0-6.404c0-82.163-0.004-164.325,0.005-246.488
		c0.001-10.979,5.023-18.721,14.298-21.561c2.644-0.809,5.57-0.96,8.367-0.961c124.826-0.053,249.652-0.063,374.479-0.054
		c14.675,0.002,22.745,8.197,22.747,22.995c0.01,81.83,0.005,163.659,0.005,245.488c0,2.13,0,4.26,0,6.982
		c9.774,0,19.052-0.019,28.329,0.006c7.1,0.019,8.385,1.337,8.402,8.526c0.014,6.166,0.115,12.335-0.02,18.498
		c-0.295,13.409-8.695,21.686-22.166,21.688c-149.825,0.026-299.65,0.026-449.477-0.001c-12.811-0.002-21.367-8.385-21.678-21.145
		c-0.165-6.829-0.1-13.666-0.012-20.498c0.071-5.431,1.73-7.021,7.336-7.057C-500.668,681.374-491.049,681.419-480.902,681.419z
		 M-470.725,681.414c2.424,0,4.22,0,6.017,0c43.983,0.001,87.966,0,131.95,0.004c8.922,0,9.939,0.801,9.697,9.582
		c-0.129,4.684,1.254,6.518,6.199,6.483c25.822-0.183,51.646-0.065,77.471-0.08c6.449-0.004,6.665-0.27,6.74-6.809
		c0.094-8.159,1.08-9.174,9.257-9.177c48.648-0.016,97.296-0.014,145.944-0.018c1.93,0,3.859,0,6.246,0c0-2.671,0-4.635,0-6.599
		c0.002-81.469-0.001-162.938,0.013-244.406c0.002-11.099-3.106-14.26-14.22-14.259c-124.119,0.002-248.239,0.007-372.358,0.009
		c-9.354,0-12.943,3.591-12.944,13.011c-0.006,65.642-0.009,131.283-0.012,196.925C-470.726,644.22-470.725,662.357-470.725,681.414
		z M-221.799,692.061c-2.026,11.205-5.877,15.578-14.654,15.635c-27.494,0.177-54.99,0.166-82.484,0.014
		c-8.607-0.047-13.331-4.877-14.264-13.56c-0.067-0.628-0.277-1.24-0.44-1.942c-57.876,0-115.567,0-173.513,0
		c0,6.401-0.191,12.388,0.059,18.354c0.208,5.001,3.756,8.545,8.892,9.235c2.296,0.309,4.655,0.191,6.986,0.191
		c127.976,0.008,255.952,0.007,383.928,0.007c20.163,0,40.326,0.022,60.489-0.015c6.729-0.012,11.396-2.991,11.809-8.331
		c0.495-6.404,0.117-12.877,0.117-19.589C-97.367,692.061-159.444,692.061-221.799,692.061z"/>
	<path fill-rule="evenodd" clip-rule="evenodd" d="M-271.086,661.353c-56.487,0-112.974,0-169.461,0
		c-8.563,0-9.333-0.777-9.332-9.474c0.004-68.817,0.01-137.635,0.018-206.451c0.001-8.293,0.945-9.251,9.074-9.251
		c113.14-0.001,226.279-0.002,339.42,0c8.49,0,9.322,0.851,9.324,9.502c0.008,68.817,0.012,137.634,0.018,206.451
		c0,8.321-0.887,9.223-9.102,9.223C-157.779,661.354-214.434,661.353-271.086,661.353z M-439.256,446.614
		c0,68.281,0,136.284,0,204.245c112.439,0,224.48,0,336.655,0c0-68.203,0-136.083,0-204.245
		C-214.958,446.614-326.979,446.614-439.256,446.614z"/>
</g>
<g>
	<path fill-rule="evenodd" clip-rule="evenodd" fill="#5BD7F6" d="M884.635-101.956c29.878,0,59.532,0.02,89.187-0.007
		c22.538-0.02,37.998,13.68,39.93,36.083c1.058,12.266-4.191,22.315-12.875,30.704c-1.065,1.028-2.28,1.903-3.397,2.825
		c11.622,24.611,9.081,37.707-10.124,54.826c2.018,6.721,4.834,13.036,5.697,19.607c1.773,13.512-4.164,24.321-14.268,32.886
		c-2.51,2.127-3.131,3.677-2.113,6.991c6.135,19.982-5.22,43.393-23.703,47.399c-7.954,1.724-16.568,1.002-24.838,0.559
		c-36.787-1.972-73.383-5.662-109.373-13.908c-17.223-3.945-34.166-8.842-49.805-17.351c-8.707-4.737-16.438-10.528-22.063-19.067
		c-1.224-1.857-5.493-2.296-8.382-2.356c-7.646-0.16-7.656,0.064-7.688,7.499c-0.02,4.5-0.073,9-0.013,13.498
		c0.061,4.526-1.971,6.771-6.613,6.761c-20.996-0.045-41.994,0.014-62.99-0.043c-5.105-0.014-6.842-1.837-6.844-6.998
		c-0.018-57.658-0.013-115.316,0.01-172.974c0.002-5.713,1.394-7.151,7.035-7.163c20.83-0.043,41.66-0.045,62.49,0.004
		c5.456,0.014,6.789,1.396,6.895,6.831c0.082,4.136,0.017,8.273,0.017,13.172c3.088-0.479,5.823-0.386,8.123-1.339
		c40.847-16.93,72.548-43.592,89.767-85.344c4.547-11.025,6.393-22.646,6.685-34.612c0.255-10.468,0.793-20.977,2.089-31.356
		c1.315-10.527,3.844-12.43,14.256-13.758c25.782-3.288,45.607,12.027,50.596,39.269c5.347,29.194-1.174,56.178-15.56,81.637
		c-0.735,1.302-1.506,2.586-2.206,3.908C884.428-103.534,884.569-103.152,884.635-101.956z M730.987,66.607
		c6.466,0.452,12.456,0.538,18.315,1.459c2.04,0.321,3.983,2.49,5.578,4.186c4.049,4.305,7.291,9.587,11.908,13.093
		c10.61,8.058,23.221,12.204,35.911,15.73c45.854,12.742,92.857,17.207,140.201,19.194c9.259,0.389,16.347-3.158,20.682-11.229
		c4.762-8.864,6.475-18.298,1.695-27.738c-3.206-6.336-3.289-7.054,2.845-11.059c16.806-10.972,19.771-28.617,7.407-44.082
		c-3.436-4.298-3.054-6.813,1.742-9.58c21.631-12.485,20.883-34.095,7.966-46.878c-3.614-3.576-2.222-6.835,2.512-9.191
		c3.466-1.726,7.039-3.972,9.472-6.896c7.396-8.889,8.475-19.072,3.605-29.469c-4.881-10.421-13.338-15.91-25.016-15.941
		c-32.825-0.088-65.651-0.065-98.475-0.332c-2.795-0.022-6.567-1.142-8.016-3.12c-0.978-1.337,0.756-5.465,2.254-7.684
		c17.235-25.514,26.06-53.078,20.734-84.077c-3.793-22.073-18.693-33.843-38.883-31.522c-4.182,0.48-5.859,2.271-6.107,6.105
		c-0.623,9.631-1.664,19.256-1.777,28.893c-0.155,12.983-1.99,25.64-6.863,37.609c-20.09,49.336-57.581,79.065-107.691,95.751
		C730.987-12.042,730.987,27.25,730.987,66.607z M720.113,94.475c0-55.704,0-110.922,0-166.134c-18.603,0-36.839,0-55.174,0
		c0,55.523,0,110.711,0,166.134C683.446,94.475,701.55,94.475,720.113,94.475z"/>
	<path fill-rule="evenodd" clip-rule="evenodd" fill="#5BD7F6" d="M692.735,89.111c-9.699,0.065-17.463-7.495-17.624-17.16
		c-0.167-9.972,7.481-17.867,17.357-17.92c9.822-0.052,17.839,7.909,17.769,17.646C710.169,81.224,702.313,89.048,692.735,89.111z
		 M692.398,78.939c3.874,0.084,7.34-3.172,7.532-7.075c0.201-4.052-3.348-7.727-7.404-7.671c-3.895,0.055-7.199,3.401-7.232,7.326
		C685.26,75.468,688.503,78.856,692.398,78.939z"/>
</g>
</svg>
