<?xml version="1.0" encoding="utf-8"?>
<!-- Generator: Adobe Illustrator 16.0.0, SVG Export Plug-In . SVG Version: 6.00 Build 0)  -->
<!DOCTYPE svg PUBLIC "-//W3C//DTD SVG 1.1//EN" "http://www.w3.org/Graphics/SVG/1.1/DTD/svg11.dtd">
<svg version="1.1" id="Layer_1" xmlns="http://www.w3.org/2000/svg" xmlns:xlink="http://www.w3.org/1999/xlink" x="0px" y="0px"
	 width="650px" height="599px" viewBox="0 0 650 599" enable-background="new 0 0 650 599" xml:space="preserve">
<g>
	<g>
		<path fill="none" stroke="#8D9091" stroke-width="2" stroke-miterlimit="10" d="M516.485,311.661h-89.831
			c-0.777,0-1.406-0.63-1.406-1.407s0.629-1.406,1.406-1.406h89.831c0.776,0,1.405,0.629,1.405,1.406
			S517.262,311.661,516.485,311.661z"/>
		<path fill="none" stroke="#8D9091" stroke-width="2" stroke-miterlimit="10" d="M220.347,311.661h-89.832
			c-0.776,0-1.406-0.63-1.406-1.407s0.63-1.406,1.406-1.406h89.832c0.777,0,1.407,0.629,1.407,1.406
			S221.124,311.661,220.347,311.661z"/>
	</g>
	<g>
		<g>
			<g>
				<g>
					<path fill="none" stroke="#8D9091" stroke-width="2" stroke-miterlimit="10" d="M398.468,563.498
						c-0.777,0-1.406-0.629-1.406-1.405v-87.279l-32.085-32.087c-0.264-0.264-0.412-0.621-0.412-0.994v-78.195
						c0-0.777,0.63-1.406,1.407-1.406c0.776,0,1.406,0.629,1.406,1.406v77.612l32.085,32.087c0.264,0.264,0.412,0.621,0.412,0.994
						v87.862C399.875,562.869,399.244,563.498,398.468,563.498z"/>
					<path fill="none" stroke="#8D9091" stroke-width="2" stroke-miterlimit="10" d="M365.803,548.057
						c-0.777,0-1.405-0.629-1.405-1.407v-34.44l-19.757-19.755c-0.263-0.263-0.41-0.619-0.41-0.992V380.348
						c0-0.779,0.628-1.408,1.405-1.408c0.776,0,1.407,0.629,1.407,1.408v110.531l19.755,19.754c0.264,0.264,0.411,0.62,0.411,0.994
						v35.022C367.209,547.428,366.581,548.057,365.803,548.057z"/>
					<path fill="none" stroke="#8D9091" stroke-width="2" stroke-miterlimit="10" d="M606.779,499.244
						c-0.359,0-0.72-0.137-0.995-0.411l-66.349-66.35h-71.804c-0.374,0-0.73-0.148-0.993-0.412l-44.59-44.59
						c-0.55-0.548-0.55-1.438,0-1.987c0.549-0.549,1.438-0.549,1.988,0l44.177,44.177h71.805c0.372,0,0.73,0.149,0.994,0.412
						l66.762,66.761c0.549,0.55,0.549,1.439,0,1.989C607.498,499.107,607.14,499.244,606.779,499.244z"/>
					<path fill="none" stroke="#8D9091" stroke-width="2" stroke-miterlimit="10" d="M464.739,489.638
						c-0.285,0-0.573-0.086-0.822-0.268l-53.247-38.63c-0.364-0.266-0.578-0.689-0.578-1.14v-85.895
						c0-0.776,0.628-1.406,1.405-1.406c0.779,0,1.407,0.63,1.407,1.406v85.178l52.661,38.209c0.631,0.457,0.77,1.336,0.313,1.964
						C465.605,489.437,465.178,489.638,464.739,489.638z"/>
					<path fill="none" stroke="#8D9091" stroke-width="2" stroke-miterlimit="10" d="M345.636,225.142
						c-0.777,0-1.405-0.629-1.405-1.407v-88.398c0-0.373,0.147-0.73,0.41-0.994l26.657-26.655V54c0-0.776,0.628-1.406,1.405-1.406
						c0.778,0,1.407,0.63,1.407,1.406v54.27c0,0.373-0.148,0.73-0.412,0.994l-26.655,26.655v87.815
						C347.043,224.512,346.412,225.142,345.636,225.142z"/>
					<path fill="none" stroke="#8D9091" stroke-width="2" stroke-miterlimit="10" d="M411.497,245.204
						c-0.777,0-1.405-0.63-1.405-1.407v-64.055c0-0.373,0.148-0.731,0.412-0.995l66.525-66.525c0.548-0.549,1.438-0.549,1.987,0
						c0.55,0.55,0.55,1.439,0,1.989l-66.112,66.114v63.472C412.904,244.574,412.276,245.204,411.497,245.204z"/>
					<path fill="none" stroke="#8D9091" stroke-width="2" stroke-miterlimit="10" d="M592.622,138.362
						c-3.914,0-7.098-3.184-7.098-7.097c0-3.915,3.184-7.099,7.098-7.099s7.098,3.184,7.098,7.099
						C599.72,135.179,596.536,138.362,592.622,138.362z M592.622,126.98c-2.361,0-4.284,1.922-4.284,4.286
						c0,2.362,1.923,4.284,4.284,4.284c2.362,0,4.285-1.922,4.285-4.284C596.907,128.902,594.984,126.98,592.622,126.98z"/>
					<path fill="none" stroke="#8D9091" stroke-width="2" stroke-miterlimit="10" d="M626.182,138.13
						c-3.914,0-7.098-3.184-7.098-7.098s3.184-7.098,7.098-7.098s7.098,3.184,7.098,7.098S630.096,138.13,626.182,138.13z
						 M626.182,126.748c-2.362,0-4.285,1.923-4.285,4.285c0,2.363,1.923,4.285,4.285,4.285s4.285-1.922,4.285-4.285
						C630.467,128.67,628.544,126.748,626.182,126.748z"/>
					<path fill="none" stroke="#8D9091" stroke-width="2" stroke-miterlimit="10" d="M372.703,54.8
						c-3.913,0-7.098-3.185-7.098-7.098c0-3.914,3.185-7.099,7.098-7.099c3.914,0,7.099,3.185,7.099,7.099
						C379.802,51.616,376.617,54.8,372.703,54.8z M372.703,43.417c-2.361,0-4.285,1.923-4.285,4.286
						c0,2.363,1.924,4.285,4.285,4.285c2.363,0,4.285-1.922,4.285-4.285C376.988,45.34,375.066,43.417,372.703,43.417z"/>
					<path fill="none" stroke="#8D9091" stroke-width="2" stroke-miterlimit="10" d="M402.327,141.175
						c-3.914,0-7.098-3.183-7.098-7.097s3.184-7.098,7.098-7.098s7.097,3.184,7.097,7.098S406.241,141.175,402.327,141.175z
						 M402.327,129.792c-2.362,0-4.285,1.923-4.285,4.286s1.923,4.285,4.285,4.285c2.361,0,4.284-1.922,4.284-4.285
						S404.688,129.792,402.327,129.792z"/>
					<path fill="none" stroke="#8D9091" stroke-width="2" stroke-miterlimit="10" d="M498.328,249.419
						c-3.914,0-7.097-3.185-7.097-7.098c0-3.914,3.183-7.098,7.097-7.098s7.098,3.184,7.098,7.098
						C505.426,246.235,502.242,249.419,498.328,249.419z M498.328,238.037c-2.361,0-4.284,1.922-4.284,4.285
						c0,2.363,1.923,4.285,4.284,4.285c2.362,0,4.285-1.922,4.285-4.285C502.613,239.959,500.69,238.037,498.328,238.037z"/>
					<path fill="none" stroke="#8D9091" stroke-width="2" stroke-miterlimit="10" d="M623.303,412.356
						c-3.912,0-7.097-3.185-7.097-7.099c0-3.913,3.185-7.097,7.097-7.097c3.914,0,7.099,3.184,7.099,7.097
						C630.401,409.172,627.217,412.356,623.303,412.356z M623.303,400.975c-2.36,0-4.283,1.923-4.283,4.283
						c0,2.362,1.923,4.285,4.283,4.285c2.362,0,4.285-1.923,4.285-4.285C627.588,402.897,625.665,400.975,623.303,400.975z"/>
					<path fill="none" stroke="#8D9091" stroke-width="2" stroke-miterlimit="10" d="M612.471,509.974
						c-3.914,0-7.097-3.184-7.097-7.098s3.183-7.098,7.097-7.098c3.913,0,7.098,3.184,7.098,7.098S616.384,509.974,612.471,509.974z
						 M612.471,498.592c-2.362,0-4.285,1.922-4.285,4.284s1.923,4.284,4.285,4.284c2.361,0,4.284-1.922,4.284-4.284
						S614.832,498.592,612.471,498.592z"/>
					<path fill="none" stroke="#8D9091" stroke-width="2" stroke-miterlimit="10" d="M398.468,574.88
						c-3.914,0-7.098-3.184-7.098-7.098c0-3.913,3.184-7.097,7.098-7.097s7.098,3.184,7.098,7.097
						C405.565,571.696,402.382,574.88,398.468,574.88z M398.468,563.498c-2.362,0-4.285,1.923-4.285,4.284
						c0,2.363,1.923,4.285,4.285,4.285c2.363,0,4.285-1.922,4.285-4.285C402.753,565.421,400.831,563.498,398.468,563.498z"/>
					<path fill="none" stroke="#8D9091" stroke-width="2" stroke-miterlimit="10" d="M365.803,559.439
						c-3.913,0-7.098-3.184-7.098-7.098s3.185-7.098,7.098-7.098c3.915,0,7.099,3.184,7.099,7.098S369.718,559.439,365.803,559.439z
						 M365.803,548.057c-2.361,0-4.284,1.923-4.284,4.285c0,2.361,1.923,4.285,4.284,4.285c2.362,0,4.286-1.924,4.286-4.285
						C370.089,549.979,368.165,548.057,365.803,548.057z"/>
					<path fill="none" stroke="#8D9091" stroke-width="2" stroke-miterlimit="10" d="M367.078,225.142
						c-0.778,0-1.406-0.629-1.406-1.407v-55.438c0-0.373,0.148-0.731,0.412-0.995l30.963-30.963c0.551-0.549,1.44-0.549,1.99,0
						c0.549,0.55,0.549,1.439,0,1.988l-30.553,30.552v54.855C368.484,224.512,367.856,225.142,367.078,225.142z"/>
					<path fill="none" stroke="#8D9091" stroke-width="2" stroke-miterlimit="10" d="M420.622,237.547
						c-0.358,0-0.72-0.137-0.993-0.412c-0.55-0.549-0.55-1.439,0-1.988l46.227-46.226c0.263-0.264,0.619-0.412,0.994-0.412h68.455
						l52.561-52.56c0.55-0.55,1.439-0.55,1.989,0c0.549,0.549,0.549,1.439,0,1.988l-52.974,52.972
						c-0.264,0.264-0.62,0.412-0.993,0.412h-68.457l-45.813,45.814C421.343,237.41,420.982,237.547,420.622,237.547z"/>
					<path fill="none" stroke="#8D9091" stroke-width="2" stroke-miterlimit="10" d="M421.822,269.478
						c-0.359,0-0.719-0.137-0.994-0.412c-0.55-0.549-0.55-1.439,0-1.988l52.764-52.762c0.264-0.264,0.621-0.412,0.995-0.412h64.088
						l80.821-80.82c0.55-0.55,1.439-0.55,1.988,0c0.55,0.549,0.55,1.439,0,1.989l-81.232,81.232
						c-0.264,0.264-0.621,0.412-0.995,0.412H475.17l-52.353,52.349C422.543,269.341,422.183,269.478,421.822,269.478z"/>
					<path fill="none" stroke="#8D9091" stroke-width="2" stroke-miterlimit="10" d="M616.623,406.665h-88.028
						c-0.341,0-0.673-0.124-0.928-0.351l-70.898-62.518h-29.997c-0.776,0-1.405-0.63-1.405-1.408c0-0.776,0.629-1.405,1.405-1.405
						h30.527c0.343,0,0.674,0.127,0.932,0.352l70.897,62.518h87.495c0.777,0,1.407,0.629,1.407,1.405
						C618.03,406.036,617.4,406.665,616.623,406.665z"/>
				</g>
				<path fill="none" stroke="#8D9091" stroke-width="2" stroke-miterlimit="10" d="M457.166,284.826h-36.544
					c-0.777,0-1.405-0.629-1.405-1.406c0-0.776,0.628-1.406,1.405-1.406h35.964l36.396-36.398c0.549-0.549,1.439-0.549,1.988,0
					c0.55,0.55,0.55,1.44,0,1.989l-36.809,36.81C457.897,284.678,457.54,284.826,457.166,284.826z"/>
			</g>
			<g>
				<g>
					<path fill="none" stroke="#8D9091" stroke-width="2" stroke-miterlimit="10" d="M248.532,563.498
						c-0.776,0-1.406-0.629-1.406-1.405V474.23c0-0.373,0.148-0.73,0.412-0.994l32.086-32.087v-77.612
						c0-0.777,0.628-1.406,1.406-1.406c0.777,0,1.406,0.629,1.406,1.406v78.195c0,0.373-0.148,0.73-0.412,0.994l-32.086,32.087
						v87.279C249.938,562.869,249.309,563.498,248.532,563.498z"/>
					<path fill="none" stroke="#8D9091" stroke-width="2" stroke-miterlimit="10" d="M281.197,548.057
						c-0.776,0-1.406-0.629-1.406-1.407v-35.022c0-0.374,0.148-0.73,0.412-0.994l19.756-19.754V380.348
						c0-0.779,0.63-1.408,1.406-1.408c0.777,0,1.406,0.629,1.406,1.408v111.114c0,0.373-0.147,0.729-0.411,0.992l-19.755,19.755
						v34.44C282.604,547.428,281.974,548.057,281.197,548.057z"/>
					<path fill="none" stroke="#8D9091" stroke-width="2" stroke-miterlimit="10" d="M40.222,499.244
						c-0.36,0-0.72-0.137-0.994-0.411c-0.549-0.55-0.549-1.439,0-1.989l66.761-66.761c0.264-0.263,0.621-0.412,0.994-0.412h71.804
						l44.178-44.177c0.549-0.549,1.438-0.549,1.989,0c0.549,0.549,0.549,1.439,0,1.987l-44.59,44.59
						c-0.264,0.264-0.622,0.412-0.994,0.412h-71.804l-66.349,66.35C40.942,499.107,40.582,499.244,40.222,499.244z"/>
					<path fill="none" stroke="#8D9091" stroke-width="2" stroke-miterlimit="10" d="M182.26,489.638
						c-0.435,0-0.864-0.201-1.14-0.581c-0.456-0.628-0.316-1.507,0.312-1.964l52.665-38.209v-85.178c0-0.776,0.63-1.406,1.406-1.406
						s1.406,0.63,1.406,1.406v85.895c0,0.45-0.216,0.874-0.58,1.14l-53.244,38.63C182.835,489.552,182.546,489.638,182.26,489.638z"
						/>
					<path fill="none" stroke="#8D9091" stroke-width="2" stroke-miterlimit="10" d="M301.365,225.142
						c-0.776,0-1.406-0.629-1.406-1.407v-87.815l-26.655-26.655c-0.263-0.264-0.412-0.622-0.412-0.994V54
						c0-0.776,0.63-1.406,1.406-1.406s1.406,0.63,1.406,1.406v53.688l26.656,26.655c0.264,0.264,0.411,0.621,0.411,0.994v88.398
						C302.771,224.512,302.142,225.142,301.365,225.142z"/>
					<path fill="none" stroke="#8D9091" stroke-width="2" stroke-miterlimit="10" d="M235.503,245.204
						c-0.776,0-1.406-0.63-1.406-1.407v-63.472l-66.112-66.114c-0.55-0.549-0.55-1.439,0-1.989c0.548-0.549,1.438-0.549,1.988,0
						l66.524,66.525c0.263,0.264,0.412,0.622,0.412,0.995v64.055C236.91,244.574,236.28,245.204,235.503,245.204z"/>
					<path fill="none" stroke="#8D9091" stroke-width="2" stroke-miterlimit="10" d="M54.378,138.362
						c-3.913,0-7.097-3.184-7.097-7.097c0-3.915,3.184-7.099,7.097-7.099c3.914,0,7.098,3.184,7.098,7.099
						C61.476,135.179,58.292,138.362,54.378,138.362z M54.378,126.98c-2.362,0-4.284,1.922-4.284,4.286
						c0,2.362,1.922,4.284,4.284,4.284c2.363,0,4.285-1.922,4.285-4.284C58.663,128.902,56.741,126.98,54.378,126.98z"/>
					<path fill="none" stroke="#8D9091" stroke-width="2" stroke-miterlimit="10" d="M20.82,138.13
						c-3.914,0-7.098-3.184-7.098-7.098s3.184-7.098,7.098-7.098s7.097,3.184,7.097,7.098S24.733,138.13,20.82,138.13z
						 M20.82,126.748c-2.363,0-4.285,1.923-4.285,4.285c0,2.363,1.922,4.285,4.285,4.285c2.362,0,4.284-1.922,4.284-4.285
						C25.104,128.67,23.182,126.748,20.82,126.748z"/>
					<path fill="none" stroke="#8D9091" stroke-width="2" stroke-miterlimit="10" d="M274.297,54.8
						c-3.913,0-7.097-3.185-7.097-7.098c0-3.914,3.184-7.099,7.097-7.099c3.914,0,7.098,3.185,7.098,7.099
						C281.395,51.616,278.211,54.8,274.297,54.8z M274.297,43.417c-2.363,0-4.285,1.923-4.285,4.286
						c0,2.363,1.922,4.285,4.285,4.285c2.363,0,4.285-1.922,4.285-4.285C278.583,45.34,276.661,43.417,274.297,43.417z"/>
					<path fill="none" stroke="#8D9091" stroke-width="2" stroke-miterlimit="10" d="M244.675,141.175
						c-3.914,0-7.098-3.183-7.098-7.097s3.184-7.098,7.098-7.098c3.913,0,7.097,3.184,7.097,7.098S248.588,141.175,244.675,141.175z
						 M244.675,129.792c-2.363,0-4.285,1.923-4.285,4.286s1.922,4.285,4.285,4.285c2.363,0,4.285-1.922,4.285-4.285
						S247.038,129.792,244.675,129.792z"/>
					<path fill="none" stroke="#8D9091" stroke-width="2" stroke-miterlimit="10" d="M148.672,249.419
						c-3.914,0-7.098-3.185-7.098-7.098c0-3.914,3.184-7.098,7.098-7.098c3.913,0,7.098,3.184,7.098,7.098
						C155.77,246.235,152.585,249.419,148.672,249.419z M148.672,238.037c-2.362,0-4.285,1.922-4.285,4.285
						c0,2.363,1.923,4.285,4.285,4.285c2.363,0,4.285-1.922,4.285-4.285C152.958,239.959,151.036,238.037,148.672,238.037z"/>
					<path fill="none" stroke="#8D9091" stroke-width="2" stroke-miterlimit="10" d="M23.698,412.356
						c-3.914,0-7.097-3.185-7.097-7.099c0-3.913,3.183-7.097,7.097-7.097c3.914,0,7.098,3.184,7.098,7.097
						C30.795,409.172,27.612,412.356,23.698,412.356z M23.698,400.975c-2.362,0-4.284,1.923-4.284,4.283
						c0,2.362,1.922,4.285,4.284,4.285c2.363,0,4.285-1.923,4.285-4.285C27.983,402.897,26.061,400.975,23.698,400.975z"/>
					<path fill="none" stroke="#8D9091" stroke-width="2" stroke-miterlimit="10" d="M34.531,509.974
						c-3.914,0-7.098-3.184-7.098-7.098s3.184-7.098,7.098-7.098c3.913,0,7.097,3.184,7.097,7.098S38.444,509.974,34.531,509.974z
						 M34.531,498.592c-2.363,0-4.285,1.922-4.285,4.284s1.922,4.284,4.285,4.284c2.363,0,4.285-1.922,4.285-4.284
						S36.894,498.592,34.531,498.592z"/>
					<path fill="none" stroke="#8D9091" stroke-width="2" stroke-miterlimit="10" d="M248.532,574.88
						c-3.914,0-7.098-3.184-7.098-7.098c0-3.913,3.184-7.097,7.098-7.097c3.913,0,7.098,3.184,7.098,7.097
						C255.63,571.696,252.445,574.88,248.532,574.88z M248.532,563.498c-2.363,0-4.285,1.923-4.285,4.284
						c0,2.363,1.922,4.285,4.285,4.285c2.363,0,4.285-1.922,4.285-4.285C252.817,565.421,250.896,563.498,248.532,563.498z"/>
					<path fill="none" stroke="#8D9091" stroke-width="2" stroke-miterlimit="10" d="M281.197,559.439
						c-3.913,0-7.097-3.184-7.097-7.098s3.184-7.098,7.097-7.098s7.097,3.184,7.097,7.098S285.11,559.439,281.197,559.439z
						 M281.197,548.057c-2.363,0-4.285,1.923-4.285,4.285c0,2.361,1.922,4.285,4.285,4.285s4.285-1.924,4.285-4.285
						C285.482,549.979,283.56,548.057,281.197,548.057z"/>
					<path fill="none" stroke="#8D9091" stroke-width="2" stroke-miterlimit="10" d="M279.923,225.142
						c-0.776,0-1.406-0.629-1.406-1.407v-54.855l-30.551-30.552c-0.549-0.549-0.549-1.438,0-1.988c0.549-0.549,1.439-0.549,1.988,0
						l30.963,30.963c0.264,0.264,0.412,0.622,0.412,0.995v55.438C281.329,224.512,280.699,225.142,279.923,225.142z"/>
					<path fill="none" stroke="#8D9091" stroke-width="2" stroke-miterlimit="10" d="M226.377,237.547
						c-0.359,0-0.72-0.137-0.994-0.412l-45.813-45.814h-68.456c-0.373,0-0.731-0.148-0.995-0.412l-52.972-52.972
						c-0.549-0.549-0.549-1.439,0-1.988c0.549-0.55,1.439-0.55,1.988,0l52.561,52.56h68.456c0.373,0,0.73,0.148,0.994,0.412
						l46.225,46.226c0.55,0.549,0.55,1.439,0,1.988C227.097,237.41,226.737,237.547,226.377,237.547z"/>
					<path fill="none" stroke="#8D9091" stroke-width="2" stroke-miterlimit="10" d="M225.177,269.478
						c-0.36,0-0.72-0.137-0.994-0.412l-52.351-52.349h-64.088c-0.373,0-0.73-0.148-0.995-0.412l-81.233-81.232
						c-0.549-0.549-0.549-1.439,0-1.989c0.549-0.55,1.439-0.55,1.989,0l80.821,80.82h64.088c0.373,0,0.731,0.148,0.994,0.412
						l52.763,52.762c0.549,0.549,0.549,1.438,0,1.988C225.897,269.341,225.537,269.478,225.177,269.478z"/>
					<path fill="none" stroke="#8D9091" stroke-width="2" stroke-miterlimit="10" d="M118.407,406.665H30.378
						c-0.776,0-1.406-0.629-1.406-1.407c0-0.776,0.63-1.405,1.406-1.405h87.497l70.897-62.518c0.257-0.225,0.587-0.352,0.93-0.352
						h30.527c0.776,0,1.406,0.629,1.406,1.405c0,0.778-0.629,1.408-1.406,1.408h-29.996l-70.896,62.518
						C119.08,406.541,118.749,406.665,118.407,406.665z"/>
				</g>
				<path fill="none" stroke="#8D9091" stroke-width="2" stroke-miterlimit="10" d="M226.377,284.826h-36.543
					c-0.373,0-0.73-0.147-0.994-0.412l-36.808-36.81c-0.549-0.549-0.549-1.439,0-1.989c0.549-0.549,1.439-0.549,1.988,0
					l36.397,36.398h35.96c0.777,0,1.406,0.63,1.406,1.406C227.784,284.197,227.154,284.826,226.377,284.826z"/>
			</g>
		</g>
		<path fill="none" stroke="#8D9091" stroke-width="2" stroke-miterlimit="10" d="M323.5,573.078c-0.776,0-1.406-0.628-1.406-1.405
			V356.96c0-0.776,0.63-1.405,1.406-1.405c0.778,0,1.407,0.629,1.407,1.405v214.713C324.907,572.45,324.278,573.078,323.5,573.078z"
			/>
		<path fill="none" stroke="#8D9091" stroke-width="2" stroke-miterlimit="10" d="M323.5,237.547c-0.776,0-1.406-0.63-1.406-1.406
			V25.852c0-0.776,0.63-1.406,1.406-1.406c0.778,0,1.407,0.63,1.407,1.406v210.289C324.907,236.917,324.278,237.547,323.5,237.547z"
			/>
		<path fill="none" stroke="#8D9091" stroke-width="2" stroke-miterlimit="10" d="M323.5,27.259c-3.913,0-7.098-3.184-7.098-7.098
			s3.185-7.098,7.098-7.098c3.914,0,7.099,3.185,7.099,7.098S327.414,27.259,323.5,27.259z M323.5,15.876
			c-2.363,0-4.285,1.922-4.285,4.286c0,2.362,1.922,4.285,4.285,4.285c2.362,0,4.285-1.922,4.285-4.285
			C327.785,17.798,325.862,15.876,323.5,15.876z"/>
		<path fill="none" stroke="#8D9091" stroke-width="2" stroke-miterlimit="10" d="M323.5,584.461c-3.913,0-7.098-3.184-7.098-7.098
			s3.185-7.098,7.098-7.098c3.914,0,7.099,3.184,7.099,7.098S327.414,584.461,323.5,584.461z M323.5,573.078
			c-2.363,0-4.285,1.923-4.285,4.285c0,2.363,1.922,4.285,4.285,4.285c2.362,0,4.285-1.922,4.285-4.285
			C327.785,575.001,325.862,573.078,323.5,573.078z"/>
	</g>
</g>
<path fill="#35ADD0" d="M624.53,302.562c-4.419-35.807-37.024-61.252-72.832-56.833c-35.808,4.418-61.256,37.027-56.835,72.833
	c4.419,35.807,37.027,61.253,72.837,56.835C603.505,370.977,628.951,338.369,624.53,302.562z"/>
<circle fill="#35ADD0" cx="156.754" cy="101.412" r="65.326"/>
<circle fill="#35ADD0" cx="490.247" cy="106.656" r="65.326"/>
<path fill="#35ADD0" d="M555.081,511.713c-4.42-35.81-37.028-61.256-72.836-56.835c-35.808,4.417-61.252,37.024-56.833,72.834
	c4.417,35.808,37.026,61.254,72.832,56.835C534.053,580.126,559.498,547.519,555.081,511.713z"/>
<circle fill="#35ADD0" cx="156.754" cy="514.467" r="65.326"/>
<circle fill="#35ADD0" cx="87.799" cy="310.562" r="65.325"/>
<g>
	<circle fill="#FCB82E" cx="155.876" cy="514.126" r="42.684"/>
	<path fill="#F58A28" d="M191.521,514.126c0,19.686-15.958,35.645-35.644,35.645c-19.687,0-35.645-15.959-35.645-35.645
		c0-19.683,15.958-35.643,35.645-35.643C175.563,478.483,191.521,494.443,191.521,514.126z"/>
	<path fill="#F05A28" d="M191.521,514.126c0-19.683-15.958-35.643-35.644-35.643c-11.767,0-22.199,5.704-28.69,14.494
		c6.418-6.233,15.17-10.072,24.822-10.072c19.685,0,35.643,15.959,35.643,35.644c0,7.919-2.586,15.229-6.954,21.146
		C187.368,533.216,191.521,524.157,191.521,514.126z"/>
	<path fill="#FDFADB" d="M169.825,511.182c0,0,2.484-0.999,2.444-6.998c-0.061-9.219-9.33-8.776-9.33-8.776h-1.909v-5.889h-4.888
		v5.889h-4.425v-5.889h-4.888v5.889h-10.888v5.109h7.888v26.663h-7.333v5.444c0,0,4.845,0,10.333,0v6.11h4.888v-6.11
		c1.554,0,3.06,0,4.425,0v6.11h4.888v-6.115c5.554-0.023,13.696-0.89,14.682-9.994C176.713,513.405,169.825,511.182,169.825,511.182
		z M151.717,500.739h5.89c0,0,5.887-0.835,5.887,4.775c0,4.668-3.889,4.777-3.889,4.777h-7.887V500.739z M162.582,527.736h-10.865
		v-11.997h8.111c0,0,8.11-0.574,8.11,5.996C167.938,527.596,162.582,527.736,162.582,527.736z"/>
</g>
<g>
	
		<rect x="124.9" y="68.436" transform="matrix(0.9422 -0.3352 0.3352 0.9422 -25.084 56.6667)" fill="#E2D1A2" width="53.491" height="65.154"/>
	
		<rect x="139.815" y="57.836" transform="matrix(1 0.0076 -0.0076 1 0.6965 -1.2715)" fill="#FCF6E3" width="53.49" height="65.155"/>
	<g>
		<circle fill="#424242" cx="165.375" cy="71.518" r="6.824"/>
		<path fill="#424242" d="M169.728,77.869h-8.705c-4.419,0-8.001,3.583-8.001,8.002v9.411h24.708v-9.411
			C177.729,81.453,174.147,77.869,169.728,77.869z"/>
		<path fill="#424242" d="M185.056,107.737c0,0.794-0.645,1.439-1.439,1.439h-35.849c-0.795,0-1.44-0.645-1.44-1.439l0,0
			c0-0.795,0.645-1.439,1.44-1.439h35.849C184.411,106.297,185.056,106.942,185.056,107.737L185.056,107.737z"/>
		<path fill="#424242" d="M185.056,101.012c0,0.794-0.645,1.44-1.439,1.44h-35.849c-0.795,0-1.44-0.646-1.44-1.44l0,0
			c0-0.794,0.645-1.439,1.44-1.439h35.849C184.411,99.573,185.056,100.217,185.056,101.012L185.056,101.012z"/>
		<path fill="#424242" d="M185.056,114.539c0,0.796-0.645,1.439-1.439,1.439h-35.849c-0.795,0-1.44-0.643-1.44-1.439l0,0
			c0-0.793,0.645-1.438,1.44-1.438h35.849C184.411,113.101,185.056,113.745,185.056,114.539L185.056,114.539z"/>
	</g>
</g>
<path fill="#FDFADB" d="M192.602,468.765h-1.795v-1.796c0-0.959-0.777-1.735-1.735-1.735c-0.959,0-1.737,0.776-1.737,1.735v1.796
	h-1.795c-0.958,0-1.734,0.775-1.734,1.734c0,0.957,0.776,1.735,1.734,1.735h1.795v1.794c0,0.958,0.778,1.738,1.737,1.738
	c0.958,0,1.735-0.78,1.735-1.738v-1.794h1.795c0.959,0,1.735-0.778,1.735-1.735C194.337,469.54,193.561,468.765,192.602,468.765z"/>
<path fill="#FDFADB" d="M129.029,471.481h-1.794v-1.796c0-0.959-0.777-1.736-1.735-1.736c-0.959,0-1.736,0.777-1.736,1.736v1.796
	h-1.796c-0.958,0-1.735,0.774-1.735,1.735c0,0.958,0.777,1.733,1.735,1.733h1.796v1.797c0,0.955,0.776,1.736,1.736,1.736
	c0.958,0,1.735-0.781,1.735-1.736v-1.797h1.794c0.96,0,1.736-0.775,1.736-1.733C130.765,472.256,129.989,471.481,129.029,471.481z"
	/>
<path fill="#FDFADB" d="M113.325,548.035h-1.794v-1.794c0-0.959-0.777-1.74-1.735-1.74c-0.959,0-1.737,0.781-1.737,1.74v1.794
	h-1.794c-0.958,0-1.735,0.776-1.735,1.735c0,0.958,0.777,1.735,1.735,1.735h1.794v1.794c0,0.958,0.777,1.735,1.737,1.735
	c0.958,0,1.735-0.777,1.735-1.735v-1.794h1.794c0.959,0,1.737-0.777,1.737-1.735C115.062,548.812,114.285,548.035,113.325,548.035z"
	/>
<path fill="#FDFADB" d="M135.231,562.338h-1.797v-1.793c0-0.958-0.775-1.736-1.734-1.736s-1.737,0.778-1.737,1.736v1.793h-1.793
	c-0.959,0-1.736,0.781-1.736,1.736c0,0.96,0.777,1.737,1.736,1.737h1.793v1.792c0,0.962,0.778,1.739,1.737,1.739
	s1.734-0.777,1.734-1.739v-1.792h1.797c0.958,0,1.735-0.777,1.735-1.737C136.967,563.119,136.19,562.338,135.231,562.338z"/>
<path fill="#FDFADB" d="M214.274,532.695h-1.794v-1.798c0-0.958-0.776-1.736-1.736-1.736c-0.959,0-1.736,0.778-1.736,1.736v1.798
	h-1.793c-0.959,0-1.737,0.776-1.737,1.734c0,0.959,0.778,1.736,1.737,1.736h1.793v1.794c0,0.958,0.777,1.735,1.736,1.735
	c0.96,0,1.736-0.777,1.736-1.735v-1.794h1.794c0.96,0,1.736-0.777,1.736-1.736C216.01,533.472,215.234,532.695,214.274,532.695z"/>
<path fill="#FDFADB" d="M541.817,113.562h-1.854v-1.857c0-0.991-0.805-1.795-1.796-1.795s-1.796,0.804-1.796,1.795v1.857h-1.856
	c-0.989,0-1.794,0.803-1.794,1.795c0,0.991,0.805,1.794,1.794,1.794h1.856v1.856c0,0.991,0.805,1.795,1.796,1.795
	s1.796-0.804,1.796-1.795v-1.856h1.854c0.991,0,1.796-0.803,1.796-1.794C543.613,114.365,542.809,113.562,541.817,113.562z"/>
<path fill="#FDFADB" d="M536.371,75.675h-1.856v-1.855c0-0.992-0.803-1.796-1.794-1.796c-0.993,0-1.797,0.804-1.797,1.796v1.855
	h-1.855c-0.99,0-1.794,0.805-1.794,1.797c0,0.99,0.804,1.794,1.794,1.794h1.855v1.854c0,0.993,0.804,1.797,1.797,1.797
	c0.991,0,1.794-0.804,1.794-1.797v-1.854h1.856c0.991,0,1.794-0.804,1.794-1.794C538.165,76.479,537.362,75.675,536.371,75.675z"/>
<path fill="#FDFADB" d="M438.646,104.67h-1.856v-1.856c0-0.993-0.809-1.795-1.798-1.795c-0.99,0-1.796,0.803-1.796,1.795v1.856
	h-1.856c-0.989,0-1.792,0.804-1.792,1.795s0.803,1.794,1.792,1.794h1.856v1.855c0,0.993,0.806,1.796,1.796,1.796
	c0.989,0,1.798-0.803,1.798-1.796v-1.855h1.856c0.988,0,1.792-0.803,1.792-1.794S439.635,104.67,438.646,104.67z"/>
<g>
	<path fill="#FAB217" d="M482.689,132.912c-2.805-3.012-8.817-5.101-15.808-5.101c-6.986,0-12.999,2.089-15.805,5.101h-1.687v3.79
		c0,4.911,7.831,8.89,17.491,8.89s17.491-3.979,17.491-8.89v-3.79H482.689z"/>
	<ellipse fill="#FFCC05" cx="466.882" cy="132.912" rx="17.491" ry="8.891"/>
</g>
<g>
	<path fill="#FAB217" d="M482.689,125.259c-2.805-3.011-8.817-5.1-15.808-5.1c-6.986,0-12.999,2.089-15.805,5.1h-1.687v3.79
		c0,4.911,7.831,8.893,17.491,8.893s17.491-3.981,17.491-8.893v-3.79H482.689z"/>
	<ellipse fill="#FFCC05" cx="466.882" cy="125.259" rx="17.491" ry="8.892"/>
</g>
<g>
	<path fill="#FAB217" d="M482.689,117.469c-2.805-3.011-8.817-5.1-15.808-5.1c-6.986,0-12.999,2.089-15.805,5.1h-1.687v3.791
		c0,4.912,7.831,8.892,17.491,8.892s17.491-3.98,17.491-8.892v-3.791H482.689z"/>
	<ellipse fill="#FFCC05" cx="466.882" cy="117.469" rx="17.491" ry="8.892"/>
</g>
<g>
	<path fill="#FAB217" d="M482.689,109.817c-2.805-3.013-8.817-5.101-15.808-5.101c-6.986,0-12.999,2.088-15.805,5.101h-1.687v3.791
		c0,4.911,7.831,8.891,17.491,8.891s17.491-3.98,17.491-8.891v-3.791H482.689z"/>
	<ellipse fill="#FFCC05" cx="466.882" cy="109.817" rx="17.491" ry="8.892"/>
</g>
<g>
	<path fill="#FAB217" d="M482.689,102.674c-2.805-3.012-8.817-5.1-15.808-5.1c-6.986,0-12.999,2.088-15.805,5.1h-1.687v3.79
		c0,4.912,7.831,8.893,17.491,8.893s17.491-3.981,17.491-8.893v-3.79H482.689z"/>
	<ellipse fill="#FFCC05" cx="466.882" cy="102.674" rx="17.491" ry="8.892"/>
</g>
<g>
	<path fill="#FAB217" d="M482.689,94.884c-2.805-3.012-8.817-5.101-15.808-5.101c-6.986,0-12.999,2.088-15.805,5.101h-1.687v3.79
		c0,4.911,7.831,8.893,17.491,8.893s17.491-3.981,17.491-8.893v-3.79H482.689z"/>
	<ellipse fill="#FFCC05" cx="466.882" cy="94.884" rx="17.491" ry="8.892"/>
</g>
<g>
	<path fill="#FAB217" d="M482.689,87.23c-2.805-3.01-8.817-5.1-15.808-5.1c-6.986,0-12.999,2.089-15.805,5.1h-1.687v3.792
		c0,4.91,7.831,8.892,17.491,8.892s17.491-3.982,17.491-8.892V87.23H482.689z"/>
	<ellipse fill="#FFCC05" cx="466.882" cy="87.23" rx="17.491" ry="8.893"/>
</g>
<g>
	<path fill="#FAB217" d="M522.627,133.553c-2.8-3.012-8.818-5.101-15.806-5.101c-6.986,0-13.005,2.089-15.802,5.101h-1.688v3.79
		c0,4.911,7.83,8.893,17.49,8.893c9.659,0,17.492-3.981,17.492-8.893v-3.79H522.627z"/>
	<ellipse fill="#FFCC05" cx="506.822" cy="133.553" rx="17.491" ry="8.892"/>
</g>
<g>
	<path fill="#FAB217" d="M522.627,125.9c-2.8-3.011-8.818-5.101-15.806-5.101c-6.986,0-13.005,2.09-15.802,5.101h-1.688v3.79
		c0,4.912,7.83,8.892,17.49,8.892c9.659,0,17.492-3.98,17.492-8.892v-3.79H522.627z"/>
	<ellipse fill="#FFCC05" cx="506.822" cy="125.9" rx="17.491" ry="8.892"/>
</g>
<g>
	<path fill="#FAB217" d="M522.627,118.11c-2.8-3.012-8.818-5.101-15.806-5.101c-6.986,0-13.005,2.089-15.802,5.101h-1.688v3.791
		c0,4.911,7.83,8.892,17.49,8.892c9.659,0,17.492-3.981,17.492-8.892v-3.791H522.627z"/>
	<ellipse fill="#FFCC05" cx="506.822" cy="118.11" rx="17.491" ry="8.892"/>
</g>
<g>
	<path fill="#FAB217" d="M522.627,110.458c-2.8-3.012-8.818-5.101-15.806-5.101c-6.986,0-13.005,2.089-15.802,5.101h-1.688v3.791
		c0,4.911,7.83,8.892,17.49,8.892c9.659,0,17.492-3.981,17.492-8.892v-3.791H522.627z"/>
	<ellipse fill="#FFCC05" cx="506.822" cy="110.458" rx="17.491" ry="8.891"/>
</g>
<g>
	<path fill="#FAB217" d="M522.627,103.315c-2.8-3.012-8.818-5.1-15.806-5.1c-6.986,0-13.005,2.088-15.802,5.1h-1.688v3.792
		c0,4.91,7.83,8.891,17.49,8.891c9.659,0,17.492-3.981,17.492-8.891v-3.792H522.627z"/>
	<ellipse fill="#FFCC05" cx="506.822" cy="103.315" rx="17.491" ry="8.892"/>
</g>
<g>
	<path fill="#FAB217" d="M522.627,95.526c-2.8-3.013-8.818-5.101-15.806-5.101c-6.986,0-13.005,2.088-15.802,5.101h-1.688v3.79
		c0,4.91,7.83,8.892,17.49,8.892c9.659,0,17.492-3.982,17.492-8.892v-3.79H522.627z"/>
	<ellipse fill="#FFCC05" cx="506.822" cy="95.526" rx="17.491" ry="8.891"/>
</g>
<g>
	<path fill="#FAB217" d="M522.627,87.873c-2.8-3.011-8.818-5.101-15.806-5.101c-6.986,0-13.005,2.09-15.802,5.101h-1.688v3.79
		c0,4.912,7.83,8.893,17.49,8.893c9.659,0,17.492-3.981,17.492-8.893v-3.79H522.627z"/>
	<ellipse fill="#FFCC05" cx="506.822" cy="87.873" rx="17.491" ry="8.893"/>
</g>
<g>
	<path fill="#FAB217" d="M522.627,81.47c-2.8-3.013-8.818-5.102-15.806-5.102c-6.986,0-13.005,2.089-15.802,5.102h-1.688v3.789
		c0,4.911,7.83,8.892,17.49,8.892c9.659,0,17.492-3.981,17.492-8.892V81.47H522.627z"/>
	<ellipse fill="#FFCC05" cx="506.822" cy="81.47" rx="17.491" ry="8.89"/>
</g>
<g>
	<path fill="#FAB217" d="M522.627,73.679c-2.8-3.011-8.818-5.101-15.806-5.101c-6.986,0-13.005,2.09-15.802,5.101h-1.688v3.792
		c0,4.91,7.83,8.89,17.49,8.89c9.659,0,17.492-3.98,17.492-8.89v-3.792H522.627z"/>
	<ellipse fill="#FFCC05" cx="506.822" cy="73.679" rx="17.491" ry="8.892"/>
</g>
<g>
	<path fill="#FAB217" d="M522.627,66.026c-2.8-3.011-8.818-5.1-15.806-5.1c-6.986,0-13.005,2.089-15.802,5.1h-1.688v3.791
		c0,4.911,7.83,8.892,17.49,8.892c9.659,0,17.492-3.981,17.492-8.892v-3.791H522.627z"/>
	<ellipse fill="#FFCC05" cx="506.822" cy="66.026" rx="17.491" ry="8.891"/>
</g>
<g>
	<g>
		<path fill="#F3EAC7" d="M534.37,547.012c-0.799,5.547-5.942,9.398-11.488,8.601l-66.549-9.562
			c-5.548-0.796-9.398-5.94-8.603-11.488l5.452-37.946c0.798-5.55,5.941-9.398,11.49-8.603l66.547,9.562
			c5.548,0.797,9.399,5.94,8.602,11.49L534.37,547.012z"/>
		
			<rect x="459.141" y="499.666" transform="matrix(0.9898 0.1422 -0.1422 0.9898 78.6328 -62.5604)" fill="#E2D1A2" width="35.737" height="38.391"/>
		
			<rect x="501.235" y="505.228" transform="matrix(0.9898 0.1423 -0.1423 0.9898 77.5494 -68.3608)" fill="#514E78" width="31.29" height="5.92"/>
		
			<rect x="498.459" y="526.367" transform="matrix(0.9898 0.1423 -0.1423 0.9898 80.2702 -67.7693)" fill="#514E78" width="31.29" height="2.29"/>
		
			<rect x="497.85" y="530.604" transform="matrix(0.9898 0.1422 -0.1422 0.9898 80.843 -67.6226)" fill="#514E78" width="31.292" height="2.291"/>
		
			<rect x="497.255" y="534.738" transform="matrix(0.9898 0.1422 -0.1422 0.9898 81.4274 -67.4979)" fill="#514E78" width="31.291" height="2.29"/>
		
			<rect x="496.648" y="538.974" transform="matrix(0.9898 0.1422 -0.1422 0.9898 82.0076 -67.357)" fill="#514E78" width="31.29" height="2.291"/>
	</g>
	<circle fill="#3C2A34" cx="478.23" cy="510.361" r="7.352"/>
	<path fill="#3C2A34" d="M481.899,517.8l-9.284-1.332c-4.713-0.678-9.082,2.596-9.758,7.305l-1.441,10.037l26.347,3.785
		l1.441-10.037C489.88,522.849,486.611,518.478,481.899,517.8z"/>
</g>
<g>
	<g>
		<path fill="#0DE8FF" d="M98.104,308.28c-1.867,0-3.383-1.515-3.383-3.382v-31.494c0-2.752-2.237-4.99-4.989-4.99H74.554
			c-2.751,0-4.99,2.238-4.99,4.99v4.735c0,1.868-1.514,3.384-3.382,3.384c-1.868,0-3.383-1.516-3.383-3.384v-4.735
			c0-6.481,5.273-11.755,11.756-11.755h15.178c6.481,0,11.755,5.274,11.755,11.755v31.494
			C101.487,306.766,99.972,308.28,98.104,308.28z"/>
		<path fill="#39D7F4" d="M113.715,339.918c0,5.604-4.544,10.148-10.148,10.148H60.719c-5.606,0-10.148-4.544-10.148-10.148v-42.75
			c0-5.604,4.542-10.148,10.148-10.148h42.847c5.604,0,10.148,4.544,10.148,10.148V339.918z"/>
		<path fill="#1189A5" d="M67.917,343.222c-5.606,0-10.149-4.546-10.149-10.147v-42.751c0-1.016,0.154-1.995,0.431-2.919
			c-4.275,1.195-7.413,5.108-7.413,9.764v42.75c0,5.604,4.543,10.148,10.149,10.148h42.847c4.589,0,8.461-3.047,9.717-7.228
			c-0.872,0.242-1.786,0.383-2.735,0.383H67.917z"/>
		<g>
			<path fill="#FFFFFF" d="M94.179,310.458c0,4.44-3.598,8.034-8.034,8.034c-4.437,0-8.035-3.594-8.035-8.034
				c0-4.438,3.598-8.035,8.035-8.035C90.582,302.423,94.179,306.021,94.179,310.458z"/>
			<rect x="82.667" y="311" fill="#FFFFFF" width="6.958" height="17.359"/>
		</g>
	</g>
</g>
<g>
	<g>
		<path fill="#FCF6E3" d="M595.396,275.261c0-6.273-5.087-11.359-11.357-11.359h-48.685c-6.273,0-11.36,5.085-11.36,11.359v72.36
			c0,6.275,5.087,11.359,11.36,11.359h48.685c6.271,0,11.357-5.084,11.357-11.359V275.261z"/>
		<rect x="534.184" y="273.789" fill="#35ADD0" width="51.026" height="70.677"/>
		<circle fill="#413E63" cx="559.697" cy="351.25" r="3.314"/>
	</g>
	<polygon fill="#18859E" points="534.184,273.789 585.21,344.466 585.21,273.789 	"/>
	<g>
		<path fill="#F3EAC7" d="M542.021,295.339c0-1.276,0.226-2.259,0.677-2.948c0.451-0.689,1.076-1.034,1.875-1.034
			c0.8,0,1.425,0.345,1.876,1.034c0.451,0.689,0.677,1.672,0.677,2.948s-0.226,2.259-0.677,2.948
			c-0.451,0.689-1.076,1.034-1.876,1.034c-0.799,0-1.424-0.345-1.875-1.034C542.246,297.598,542.021,296.615,542.021,295.339z
			 M546.047,295.339c0-0.418-0.024-0.814-0.071-1.188c-0.048-0.374-0.129-0.7-0.242-0.979c-0.114-0.279-0.266-0.5-0.457-0.666
			c-0.19-0.165-0.425-0.248-0.704-0.248c-0.278,0-0.513,0.083-0.703,0.248c-0.191,0.165-0.344,0.387-0.457,0.666
			s-0.194,0.605-0.242,0.979s-0.071,0.77-0.071,1.188s0.023,0.814,0.071,1.188s0.129,0.7,0.242,0.979s0.266,0.5,0.457,0.666
			c0.19,0.165,0.425,0.248,0.703,0.248c0.279,0,0.514-0.083,0.704-0.248c0.191-0.165,0.343-0.387,0.457-0.666
			c0.113-0.279,0.194-0.605,0.242-0.979C546.022,296.153,546.047,295.757,546.047,295.339z"/>
		<path fill="#F3EAC7" d="M548.698,293.106c0.418-0.162,0.824-0.369,1.221-0.622c0.396-0.253,0.759-0.57,1.089-0.952h0.726v7.623
			h-1.022v-6.204c-0.088,0.081-0.196,0.165-0.324,0.253c-0.129,0.088-0.269,0.172-0.418,0.253c-0.15,0.081-0.309,0.158-0.474,0.231
			s-0.324,0.136-0.479,0.187L548.698,293.106z"/>
		<path fill="#F3EAC7" d="M554.429,295.339c0-1.276,0.226-2.259,0.677-2.948c0.451-0.689,1.076-1.034,1.875-1.034
			c0.8,0,1.425,0.345,1.876,1.034c0.451,0.689,0.677,1.672,0.677,2.948s-0.226,2.259-0.677,2.948
			c-0.451,0.689-1.076,1.034-1.876,1.034c-0.799,0-1.424-0.345-1.875-1.034C554.654,297.598,554.429,296.615,554.429,295.339z
			 M558.455,295.339c0-0.418-0.024-0.814-0.071-1.188c-0.048-0.374-0.129-0.7-0.242-0.979c-0.114-0.279-0.266-0.5-0.457-0.666
			c-0.19-0.165-0.425-0.248-0.704-0.248c-0.278,0-0.513,0.083-0.703,0.248c-0.191,0.165-0.344,0.387-0.457,0.666
			s-0.194,0.605-0.242,0.979s-0.071,0.77-0.071,1.188s0.023,0.814,0.071,1.188s0.129,0.7,0.242,0.979s0.266,0.5,0.457,0.666
			c0.19,0.165,0.425,0.248,0.703,0.248c0.279,0,0.514-0.083,0.704-0.248c0.191-0.165,0.343-0.387,0.457-0.666
			c0.113-0.279,0.194-0.605,0.242-0.979C558.431,296.153,558.455,295.757,558.455,295.339z"/>
		<path fill="#F3EAC7" d="M561.106,293.106c0.418-0.162,0.824-0.369,1.221-0.622c0.396-0.253,0.759-0.57,1.089-0.952h0.726v7.623
			h-1.022v-6.204c-0.088,0.081-0.196,0.165-0.324,0.253c-0.129,0.088-0.269,0.172-0.418,0.253c-0.15,0.081-0.309,0.158-0.474,0.231
			s-0.324,0.136-0.479,0.187L561.106,293.106z"/>
		<path fill="#F3EAC7" d="M572.215,296.296c0,0.455-0.065,0.865-0.197,1.232c-0.133,0.367-0.317,0.682-0.556,0.946
			c-0.238,0.264-0.522,0.468-0.853,0.611c-0.33,0.143-0.689,0.214-1.078,0.214s-0.748-0.071-1.078-0.214
			c-0.33-0.143-0.614-0.347-0.853-0.611c-0.238-0.264-0.424-0.579-0.556-0.946s-0.198-0.777-0.198-1.232
			c0-0.447,0.066-0.856,0.198-1.227s0.317-0.688,0.556-0.952c0.238-0.264,0.522-0.467,0.853-0.61s0.689-0.214,1.078-0.214
			s0.748,0.071,1.078,0.214s0.614,0.347,0.853,0.61c0.238,0.264,0.423,0.582,0.556,0.952
			C572.149,295.44,572.215,295.849,572.215,296.296z M571.148,296.296c0-0.646-0.146-1.157-0.435-1.535
			c-0.29-0.377-0.685-0.566-1.183-0.566c-0.499,0-0.893,0.189-1.183,0.566c-0.29,0.378-0.435,0.889-0.435,1.535
			c0,0.645,0.145,1.157,0.435,1.534c0.29,0.378,0.684,0.567,1.183,0.567c0.498,0,0.893-0.189,1.183-0.567
			C571.003,297.453,571.148,296.941,571.148,296.296z"/>
		<path fill="#F3EAC7" d="M573.8,293.106c0.418-0.162,0.824-0.369,1.221-0.622c0.396-0.253,0.759-0.57,1.089-0.952h0.726v7.623
			h-1.022v-6.204c-0.088,0.081-0.196,0.165-0.324,0.253c-0.129,0.088-0.269,0.172-0.418,0.253c-0.15,0.081-0.309,0.158-0.474,0.231
			s-0.324,0.136-0.479,0.187L573.8,293.106z"/>
	</g>
	<g>
		<path fill="#F3EAC7" d="M542.021,309.025c0-1.275,0.226-2.258,0.677-2.947s1.076-1.034,1.875-1.034c0.8,0,1.425,0.345,1.876,1.034
			s0.677,1.672,0.677,2.947c0,1.276-0.226,2.259-0.677,2.948s-1.076,1.034-1.876,1.034c-0.799,0-1.424-0.345-1.875-1.034
			S542.021,310.302,542.021,309.025z M546.047,309.025c0-0.418-0.024-0.813-0.071-1.188c-0.048-0.374-0.129-0.7-0.242-0.979
			c-0.114-0.278-0.266-0.5-0.457-0.665c-0.19-0.165-0.425-0.248-0.704-0.248c-0.278,0-0.513,0.083-0.703,0.248
			c-0.191,0.165-0.344,0.387-0.457,0.665c-0.113,0.279-0.194,0.605-0.242,0.979s-0.071,0.77-0.071,1.188s0.023,0.814,0.071,1.188
			s0.129,0.7,0.242,0.979c0.113,0.279,0.266,0.501,0.457,0.666c0.19,0.165,0.425,0.247,0.703,0.247c0.279,0,0.514-0.082,0.704-0.247
			c0.191-0.165,0.343-0.387,0.457-0.666c0.113-0.278,0.194-0.604,0.242-0.979C546.022,309.84,546.047,309.443,546.047,309.025z"/>
		<path fill="#F3EAC7" d="M548.698,306.793c0.418-0.161,0.824-0.369,1.221-0.622c0.396-0.253,0.759-0.569,1.089-0.951h0.726v7.623
			h-1.022v-6.204c-0.088,0.081-0.196,0.165-0.324,0.253c-0.129,0.088-0.269,0.173-0.418,0.253c-0.15,0.081-0.309,0.158-0.474,0.231
			s-0.324,0.136-0.479,0.187L548.698,306.793z"/>
		<path fill="#F3EAC7" d="M554.429,309.025c0-1.275,0.226-2.258,0.677-2.947s1.076-1.034,1.875-1.034c0.8,0,1.425,0.345,1.876,1.034
			s0.677,1.672,0.677,2.947c0,1.276-0.226,2.259-0.677,2.948s-1.076,1.034-1.876,1.034c-0.799,0-1.424-0.345-1.875-1.034
			S554.429,310.302,554.429,309.025z M558.455,309.025c0-0.418-0.024-0.813-0.071-1.188c-0.048-0.374-0.129-0.7-0.242-0.979
			c-0.114-0.278-0.266-0.5-0.457-0.665c-0.19-0.165-0.425-0.248-0.704-0.248c-0.278,0-0.513,0.083-0.703,0.248
			c-0.191,0.165-0.344,0.387-0.457,0.665c-0.113,0.279-0.194,0.605-0.242,0.979s-0.071,0.77-0.071,1.188s0.023,0.814,0.071,1.188
			s0.129,0.7,0.242,0.979c0.113,0.279,0.266,0.501,0.457,0.666c0.19,0.165,0.425,0.247,0.703,0.247c0.279,0,0.514-0.082,0.704-0.247
			c0.191-0.165,0.343-0.387,0.457-0.666c0.113-0.278,0.194-0.604,0.242-0.979C558.431,309.84,558.455,309.443,558.455,309.025z"/>
		<path fill="#F3EAC7" d="M561.106,306.793c0.418-0.161,0.824-0.369,1.221-0.622c0.396-0.253,0.759-0.569,1.089-0.951h0.726v7.623
			h-1.022v-6.204c-0.088,0.081-0.196,0.165-0.324,0.253c-0.129,0.088-0.269,0.173-0.418,0.253c-0.15,0.081-0.309,0.158-0.474,0.231
			s-0.324,0.136-0.479,0.187L561.106,306.793z"/>
		<path fill="#F3EAC7" d="M572.215,309.982c0,0.455-0.065,0.866-0.197,1.232c-0.133,0.367-0.317,0.682-0.556,0.946
			c-0.238,0.264-0.522,0.467-0.853,0.61c-0.33,0.143-0.689,0.214-1.078,0.214s-0.748-0.071-1.078-0.214
			c-0.33-0.144-0.614-0.347-0.853-0.61c-0.238-0.265-0.424-0.579-0.556-0.946c-0.132-0.366-0.198-0.777-0.198-1.232
			c0-0.447,0.066-0.855,0.198-1.227c0.132-0.37,0.317-0.688,0.556-0.951s0.522-0.468,0.853-0.61s0.689-0.215,1.078-0.215
			s0.748,0.072,1.078,0.215s0.614,0.347,0.853,0.61s0.423,0.581,0.556,0.951C572.149,309.127,572.215,309.535,572.215,309.982z
			 M571.148,309.982c0-0.645-0.146-1.156-0.435-1.534c-0.29-0.378-0.685-0.566-1.183-0.566c-0.499,0-0.893,0.188-1.183,0.566
			s-0.435,0.89-0.435,1.534c0,0.646,0.145,1.157,0.435,1.535s0.684,0.566,1.183,0.566c0.498,0,0.893-0.188,1.183-0.566
			C571.003,311.14,571.148,310.628,571.148,309.982z"/>
		<path fill="#F3EAC7" d="M573.8,306.793c0.418-0.161,0.824-0.369,1.221-0.622c0.396-0.253,0.759-0.569,1.089-0.951h0.726v7.623
			h-1.022v-6.204c-0.088,0.081-0.196,0.165-0.324,0.253c-0.129,0.088-0.269,0.173-0.418,0.253c-0.15,0.081-0.309,0.158-0.474,0.231
			s-0.324,0.136-0.479,0.187L573.8,306.793z"/>
	</g>
	<g>
		<path fill="#F3EAC7" d="M542.021,324.052c0-1.275,0.226-2.258,0.677-2.947s1.076-1.034,1.875-1.034c0.8,0,1.425,0.345,1.876,1.034
			s0.677,1.672,0.677,2.947c0,1.276-0.226,2.259-0.677,2.948s-1.076,1.034-1.876,1.034c-0.799,0-1.424-0.345-1.875-1.034
			S542.021,325.328,542.021,324.052z M546.047,324.052c0-0.418-0.024-0.813-0.071-1.188c-0.048-0.374-0.129-0.7-0.242-0.979
			c-0.114-0.278-0.266-0.5-0.457-0.665c-0.19-0.165-0.425-0.248-0.704-0.248c-0.278,0-0.513,0.083-0.703,0.248
			c-0.191,0.165-0.344,0.387-0.457,0.665c-0.113,0.279-0.194,0.605-0.242,0.979s-0.071,0.77-0.071,1.188s0.023,0.814,0.071,1.188
			s0.129,0.7,0.242,0.979c0.113,0.279,0.266,0.501,0.457,0.666c0.19,0.165,0.425,0.247,0.703,0.247c0.279,0,0.514-0.082,0.704-0.247
			c0.191-0.165,0.343-0.387,0.457-0.666c0.113-0.278,0.194-0.604,0.242-0.979C546.022,324.866,546.047,324.47,546.047,324.052z"/>
		<path fill="#F3EAC7" d="M548.698,321.819c0.418-0.161,0.824-0.369,1.221-0.622c0.396-0.253,0.759-0.569,1.089-0.951h0.726v7.623
			h-1.022v-6.204c-0.088,0.081-0.196,0.165-0.324,0.253c-0.129,0.088-0.269,0.173-0.418,0.253c-0.15,0.081-0.309,0.158-0.474,0.231
			s-0.324,0.136-0.479,0.187L548.698,321.819z"/>
		<path fill="#F3EAC7" d="M554.429,324.052c0-1.275,0.226-2.258,0.677-2.947s1.076-1.034,1.875-1.034c0.8,0,1.425,0.345,1.876,1.034
			s0.677,1.672,0.677,2.947c0,1.276-0.226,2.259-0.677,2.948s-1.076,1.034-1.876,1.034c-0.799,0-1.424-0.345-1.875-1.034
			S554.429,325.328,554.429,324.052z M558.455,324.052c0-0.418-0.024-0.813-0.071-1.188c-0.048-0.374-0.129-0.7-0.242-0.979
			c-0.114-0.278-0.266-0.5-0.457-0.665c-0.19-0.165-0.425-0.248-0.704-0.248c-0.278,0-0.513,0.083-0.703,0.248
			c-0.191,0.165-0.344,0.387-0.457,0.665c-0.113,0.279-0.194,0.605-0.242,0.979s-0.071,0.77-0.071,1.188s0.023,0.814,0.071,1.188
			s0.129,0.7,0.242,0.979c0.113,0.279,0.266,0.501,0.457,0.666c0.19,0.165,0.425,0.247,0.703,0.247c0.279,0,0.514-0.082,0.704-0.247
			c0.191-0.165,0.343-0.387,0.457-0.666c0.113-0.278,0.194-0.604,0.242-0.979C558.431,324.866,558.455,324.47,558.455,324.052z"/>
		<path fill="#F3EAC7" d="M561.106,321.819c0.418-0.161,0.824-0.369,1.221-0.622c0.396-0.253,0.759-0.569,1.089-0.951h0.726v7.623
			h-1.022v-6.204c-0.088,0.081-0.196,0.165-0.324,0.253c-0.129,0.088-0.269,0.173-0.418,0.253c-0.15,0.081-0.309,0.158-0.474,0.231
			s-0.324,0.136-0.479,0.187L561.106,321.819z"/>
		<path fill="#F3EAC7" d="M572.215,325.009c0,0.455-0.065,0.866-0.197,1.232c-0.133,0.367-0.317,0.682-0.556,0.946
			c-0.238,0.264-0.522,0.467-0.853,0.61c-0.33,0.143-0.689,0.214-1.078,0.214s-0.748-0.071-1.078-0.214
			c-0.33-0.144-0.614-0.347-0.853-0.61c-0.238-0.265-0.424-0.579-0.556-0.946c-0.132-0.366-0.198-0.777-0.198-1.232
			c0-0.447,0.066-0.855,0.198-1.227c0.132-0.37,0.317-0.688,0.556-0.951s0.522-0.468,0.853-0.61s0.689-0.215,1.078-0.215
			s0.748,0.072,1.078,0.215s0.614,0.347,0.853,0.61s0.423,0.581,0.556,0.951C572.149,324.153,572.215,324.562,572.215,325.009z
			 M571.148,325.009c0-0.645-0.146-1.156-0.435-1.534c-0.29-0.378-0.685-0.566-1.183-0.566c-0.499,0-0.893,0.188-1.183,0.566
			s-0.435,0.89-0.435,1.534c0,0.646,0.145,1.157,0.435,1.535s0.684,0.566,1.183,0.566c0.498,0,0.893-0.188,1.183-0.566
			C571.003,326.166,571.148,325.654,571.148,325.009z"/>
		<path fill="#F3EAC7" d="M573.8,321.819c0.418-0.161,0.824-0.369,1.221-0.622c0.396-0.253,0.759-0.569,1.089-0.951h0.726v7.623
			h-1.022v-6.204c-0.088,0.081-0.196,0.165-0.324,0.253c-0.129,0.088-0.269,0.173-0.418,0.253c-0.15,0.081-0.309,0.158-0.474,0.231
			s-0.324,0.136-0.479,0.187L573.8,321.819z"/>
	</g>
</g>
<g>
	<path fill="#666666" d="M436.218,388.603c0,4.612-3.738,8.347-8.347,8.347h-208.33c-4.61,0-8.348-3.734-8.348-8.347V228.967
		c0-4.609,3.738-8.347,8.348-8.347h208.33c4.608,0,8.347,3.738,8.347,8.347V388.603z"/>
	<path fill="#39D7F4" d="M420,374.251c0,4.533-3.756,7.749-8.381,7.749H236.403c-4.626,0-8.403-3.216-8.403-7.749V242.674
		c0-4.534,3.776-8.674,8.403-8.674h175.216c4.625,0,8.381,4.14,8.381,8.674V374.251z"/>
	<path fill="#35ADD0" d="M227.396,241.899v131.578c0,4.532,4.38,8.507,9.006,8.507h175.216c2.211,0,4.23-0.913,5.742-2.356
		l-186.43-143.754C228.835,237.2,227.396,239.303,227.396,241.899z"/>
	<g>
		<path fill="#FFFFFF" d="M278.602,268.62c3.309,0,5.853,0.629,7.633,1.887c1.779,1.258,2.669,3.134,2.669,5.627
			c0,1.36-0.244,2.522-0.731,3.485c-0.488,0.963-1.19,1.746-2.108,2.346c-0.918,0.601-2.035,1.037-3.349,1.309
			c-1.315,0.272-2.8,0.408-4.454,0.408h-2.618v8.738h-3.298v-23.222c0.929-0.226,1.966-0.379,3.111-0.459
			C276.601,268.66,277.649,268.62,278.602,268.62z M278.874,271.51c-1.406,0-2.482,0.034-3.23,0.102v9.248h2.482
			c1.133,0,2.153-0.073,3.06-0.221c0.906-0.147,1.671-0.396,2.295-0.748c0.623-0.352,1.105-0.833,1.445-1.445
			c0.34-0.612,0.51-1.394,0.51-2.346c0-0.906-0.176-1.654-0.527-2.244c-0.352-0.589-0.828-1.06-1.428-1.411
			c-0.601-0.351-1.298-0.595-2.091-0.731C280.596,271.578,279.757,271.51,278.874,271.51z"/>
		<path fill="#FFFFFF" d="M299.341,274.366c0.272,0,0.583,0.017,0.935,0.051c0.351,0.034,0.697,0.08,1.037,0.136
			c0.34,0.057,0.651,0.114,0.935,0.17c0.283,0.057,0.493,0.107,0.629,0.153l-0.544,2.754c-0.25-0.09-0.663-0.198-1.241-0.323
			s-1.321-0.187-2.227-0.187c-0.59,0-1.173,0.063-1.751,0.187s-0.958,0.209-1.139,0.255v14.858h-3.162v-16.932
			c0.748-0.272,1.677-0.527,2.788-0.765C296.711,274.485,297.958,274.366,299.341,274.366z"/>
		<path fill="#FFFFFF" d="M307.5,271.544c-0.567,0-1.049-0.187-1.445-0.561s-0.595-0.878-0.595-1.513
			c0-0.634,0.198-1.139,0.595-1.513s0.878-0.561,1.445-0.561c0.566,0,1.048,0.187,1.445,0.561c0.396,0.374,0.595,0.878,0.595,1.513
			c0,0.635-0.199,1.139-0.595,1.513C308.548,271.357,308.066,271.544,307.5,271.544z M309.098,292.42h-3.162v-17.68h3.162V292.42z"
			/>
		<path fill="#FFFFFF" d="M328.342,274.74c-0.883,3.31-1.92,6.483-3.11,9.52c-1.19,3.038-2.341,5.758-3.451,8.16h-2.856
			c-1.111-2.402-2.261-5.122-3.451-8.16c-1.19-3.037-2.227-6.21-3.111-9.52h3.4c0.272,1.111,0.595,2.295,0.969,3.553
			s0.77,2.505,1.19,3.74c0.419,1.236,0.844,2.431,1.275,3.587c0.43,1.156,0.838,2.188,1.224,3.094
			c0.385-0.906,0.793-1.938,1.224-3.094c0.43-1.156,0.855-2.352,1.275-3.587c0.419-1.235,0.816-2.482,1.19-3.74
			s0.697-2.442,0.969-3.553H328.342z"/>
		<path fill="#FFFFFF" d="M337.318,274.298c1.27,0,2.34,0.165,3.213,0.493c0.872,0.329,1.575,0.793,2.107,1.394
			c0.533,0.601,0.912,1.315,1.14,2.142c0.226,0.828,0.34,1.74,0.34,2.737v11.05c-0.272,0.046-0.651,0.108-1.14,0.187
			c-0.486,0.08-1.036,0.153-1.648,0.221c-0.611,0.068-1.275,0.13-1.988,0.187c-0.715,0.056-1.424,0.085-2.125,0.085
			c-0.998,0-1.916-0.102-2.754-0.306c-0.84-0.204-1.564-0.527-2.177-0.969s-1.088-1.025-1.428-1.751
			c-0.341-0.725-0.511-1.598-0.511-2.618c0-0.974,0.199-1.813,0.596-2.516c0.396-0.702,0.936-1.269,1.615-1.7
			s1.473-0.748,2.379-0.952c0.907-0.204,1.859-0.306,2.857-0.306c0.316,0,0.646,0.017,0.985,0.051
			c0.34,0.034,0.663,0.08,0.969,0.136c0.306,0.057,0.572,0.108,0.8,0.153c0.226,0.045,0.385,0.08,0.476,0.102v-0.884
			c0-0.521-0.058-1.037-0.171-1.547c-0.113-0.51-0.316-0.963-0.611-1.36s-0.697-0.714-1.207-0.952
			c-0.51-0.238-1.173-0.357-1.988-0.357c-1.043,0-1.955,0.074-2.738,0.221c-0.781,0.148-1.365,0.301-1.75,0.459l-0.375-2.618
			c0.408-0.181,1.089-0.357,2.041-0.527C335.176,274.383,336.207,274.298,337.318,274.298z M337.59,290.142
			c0.748,0,1.412-0.017,1.989-0.051c0.578-0.034,1.06-0.096,1.445-0.187v-5.27c-0.228-0.113-0.595-0.209-1.104-0.289
			c-0.511-0.079-1.129-0.119-1.854-0.119c-0.477,0-0.98,0.034-1.514,0.102c-0.532,0.068-1.02,0.209-1.461,0.425
			c-0.442,0.216-0.811,0.51-1.105,0.884s-0.441,0.867-0.441,1.479c0,1.134,0.361,1.921,1.088,2.363
			C335.357,289.921,336.344,290.142,337.59,290.142z"/>
		<path fill="#FFFFFF" d="M352.313,274.74h6.697v2.652h-6.697v8.16c0,0.884,0.067,1.615,0.203,2.193
			c0.137,0.578,0.34,1.031,0.612,1.36s0.612,0.561,1.021,0.697c0.407,0.136,0.883,0.204,1.428,0.204
			c0.951,0,1.717-0.107,2.295-0.323s0.98-0.368,1.207-0.459l0.611,2.618c-0.317,0.159-0.873,0.357-1.666,0.595
			c-0.793,0.238-1.699,0.357-2.72,0.357c-1.202,0-2.192-0.153-2.976-0.459c-0.781-0.306-1.41-0.765-1.887-1.377
			c-0.476-0.612-0.811-1.365-1.002-2.261c-0.193-0.895-0.289-1.932-0.289-3.111V269.81l3.162-0.544V274.74z"/>
		<path fill="#FFFFFF" d="M361.695,283.614c0-1.564,0.227-2.929,0.68-4.097s1.055-2.136,1.803-2.907
			c0.748-0.77,1.609-1.348,2.584-1.734c0.975-0.385,1.972-0.578,2.992-0.578c2.379,0,4.203,0.743,5.474,2.227
			c1.269,1.485,1.903,3.746,1.903,6.783c0,0.136,0,0.312,0,0.527c0,0.216-0.012,0.414-0.033,0.595h-12.104
			c0.135,1.836,0.668,3.23,1.598,4.182c0.929,0.952,2.379,1.428,4.352,1.428c1.11,0,2.045-0.096,2.805-0.289
			c0.76-0.192,1.332-0.379,1.717-0.561l0.442,2.652c-0.386,0.204-1.06,0.42-2.022,0.646c-0.964,0.227-2.057,0.34-3.281,0.34
			c-1.542,0-2.873-0.233-3.995-0.697s-2.046-1.105-2.771-1.921c-0.727-0.816-1.264-1.785-1.615-2.907
			C361.871,286.181,361.695,284.952,361.695,283.614z M373.834,281.88c0.021-1.428-0.336-2.601-1.072-3.519s-1.75-1.377-3.043-1.377
			c-0.725,0-1.365,0.142-1.92,0.425c-0.557,0.284-1.026,0.652-1.412,1.105c-0.385,0.454-0.686,0.975-0.9,1.564
			c-0.216,0.589-0.357,1.19-0.425,1.802H373.834z"/>
		<path fill="#FFFFFF" d="M250.994,325.624c-0.476,0-0.992-0.012-1.547-0.034c-0.556-0.022-1.111-0.057-1.666-0.102
			c-0.556-0.046-1.105-0.103-1.649-0.17c-0.544-0.068-1.043-0.159-1.496-0.272v-22.848c0.453-0.113,0.952-0.204,1.496-0.272
			c0.544-0.067,1.093-0.124,1.649-0.17c0.555-0.045,1.105-0.079,1.649-0.102c0.544-0.022,1.054-0.034,1.53-0.034
			c1.36,0,2.635,0.102,3.825,0.306c1.19,0.204,2.221,0.55,3.094,1.037c0.873,0.487,1.558,1.128,2.057,1.921
			c0.498,0.794,0.748,1.769,0.748,2.924c0,1.292-0.306,2.353-0.918,3.18c-0.612,0.827-1.428,1.444-2.448,1.853
			c1.382,0.408,2.482,1.054,3.298,1.938c0.816,0.884,1.224,2.131,1.224,3.739c0,2.358-0.867,4.131-2.601,5.321
			C257.504,325.029,254.756,325.624,250.994,325.624z M247.899,311.786h3.468c0.816,0,1.586-0.057,2.312-0.17
			s1.354-0.317,1.887-0.612c0.532-0.294,0.952-0.68,1.258-1.156c0.306-0.476,0.459-1.076,0.459-1.802
			c0-0.68-0.159-1.252-0.476-1.717c-0.318-0.465-0.754-0.839-1.309-1.122c-0.556-0.283-1.207-0.493-1.955-0.629
			s-1.542-0.204-2.38-0.204c-0.839,0-1.496,0.012-1.972,0.034s-0.907,0.057-1.292,0.102V311.786z M247.899,314.438v8.297
			c0.249,0.022,0.544,0.045,0.884,0.067c0.294,0.023,0.64,0.04,1.037,0.051c0.396,0.012,0.855,0.018,1.377,0.018
			c0.975,0,1.898-0.063,2.771-0.188c0.873-0.124,1.638-0.345,2.295-0.663c0.657-0.316,1.185-0.759,1.581-1.325
			s0.595-1.28,0.595-2.143c0-0.771-0.148-1.422-0.442-1.955c-0.295-0.532-0.72-0.957-1.275-1.274
			c-0.556-0.317-1.219-0.544-1.989-0.681c-0.771-0.136-1.632-0.204-2.584-0.204H247.899z"/>
		<path fill="#FFFFFF" d="M271.597,325.76c-1.95-0.046-3.332-0.464-4.148-1.258c-0.816-0.793-1.224-2.028-1.224-3.706V299.58
			l3.162-0.544v21.25c0,0.521,0.045,0.952,0.136,1.292c0.09,0.34,0.238,0.611,0.442,0.815s0.476,0.357,0.816,0.459
			c0.34,0.103,0.759,0.188,1.258,0.256L271.597,325.76z"/>
		<path fill="#FFFFFF" d="M291.181,316.58c0,1.405-0.204,2.675-0.612,3.808c-0.408,1.134-0.98,2.108-1.717,2.924
			c-0.737,0.816-1.615,1.445-2.635,1.888c-1.02,0.441-2.131,0.663-3.332,0.663c-1.202,0-2.312-0.222-3.332-0.663
			c-1.02-0.442-1.899-1.071-2.635-1.888c-0.737-0.815-1.309-1.79-1.717-2.924c-0.408-1.133-0.612-2.402-0.612-3.808
			c0-1.383,0.204-2.646,0.612-3.791c0.408-1.145,0.98-2.125,1.717-2.941c0.736-0.815,1.615-1.444,2.635-1.887
			c1.02-0.442,2.13-0.663,3.332-0.663c1.201,0,2.312,0.221,3.332,0.663s1.898,1.071,2.635,1.887
			c0.736,0.816,1.309,1.797,1.717,2.941C290.977,313.934,291.181,315.197,291.181,316.58z M287.883,316.58
			c0-1.994-0.448-3.575-1.343-4.743c-0.896-1.167-2.114-1.751-3.655-1.751s-2.76,0.584-3.655,1.751
			c-0.896,1.168-1.343,2.749-1.343,4.743c0,1.995,0.447,3.576,1.343,4.743c0.895,1.167,2.113,1.751,3.655,1.751
			s2.76-0.584,3.655-1.751C287.435,320.156,287.883,318.575,287.883,316.58z"/>
		<path fill="#FFFFFF" d="M303.319,325.828c-1.428,0-2.681-0.227-3.757-0.681c-1.077-0.453-1.984-1.088-2.72-1.903
			c-0.737-0.816-1.287-1.785-1.649-2.907c-0.363-1.122-0.544-2.363-0.544-3.723c0-1.36,0.198-2.606,0.595-3.74
			c0.396-1.133,0.957-2.113,1.683-2.941c0.725-0.827,1.615-1.473,2.669-1.938c1.054-0.465,2.227-0.697,3.519-0.697
			c0.793,0,1.586,0.068,2.38,0.204c0.793,0.136,1.552,0.352,2.278,0.646l-0.714,2.687c-0.476-0.227-1.026-0.408-1.649-0.544
			c-0.624-0.136-1.287-0.204-1.989-0.204c-1.768,0-3.123,0.556-4.063,1.666c-0.941,1.11-1.411,2.731-1.411,4.862
			c0,0.952,0.107,1.824,0.323,2.617c0.215,0.794,0.555,1.475,1.02,2.04c0.464,0.567,1.059,1.004,1.785,1.31
			c0.725,0.306,1.609,0.459,2.652,0.459c0.838,0,1.598-0.079,2.278-0.238c0.68-0.158,1.212-0.328,1.598-0.51l0.442,2.652
			c-0.182,0.113-0.442,0.221-0.782,0.322c-0.34,0.103-0.726,0.192-1.156,0.272c-0.431,0.079-0.89,0.147-1.377,0.204
			C304.242,325.799,303.772,325.828,303.319,325.828z"/>
		<path fill="#FFFFFF" d="M317.836,315.696c0.68,0.521,1.399,1.167,2.159,1.938c0.759,0.771,1.507,1.604,2.244,2.499
			c0.736,0.896,1.433,1.802,2.091,2.72c0.657,0.918,1.212,1.774,1.666,2.567h-3.706c-0.476-0.793-1.026-1.604-1.649-2.431
			c-0.624-0.827-1.275-1.621-1.955-2.38c-0.68-0.76-1.372-1.457-2.074-2.092c-0.703-0.634-1.372-1.167-2.006-1.598v8.5h-3.162
			v-25.84l3.162-0.544v16.116c0.544-0.544,1.145-1.145,1.802-1.803c0.657-0.657,1.303-1.326,1.938-2.006
			c0.634-0.68,1.235-1.331,1.802-1.955c0.566-0.623,1.054-1.173,1.462-1.648h3.706c-0.521,0.566-1.088,1.189-1.7,1.87
			c-0.612,0.68-1.247,1.365-1.904,2.057c-0.658,0.691-1.32,1.383-1.989,2.074C319.055,314.433,318.426,315.084,317.836,315.696z"/>
		<path fill="#FFFFFF" d="M335.992,325.828c-1.428,0-2.68-0.227-3.756-0.681c-1.077-0.453-1.984-1.088-2.721-1.903
			c-0.736-0.816-1.287-1.785-1.648-2.907c-0.363-1.122-0.545-2.363-0.545-3.723c0-1.36,0.199-2.606,0.596-3.74
			c0.396-1.133,0.957-2.113,1.684-2.941c0.725-0.827,1.614-1.473,2.668-1.938c1.055-0.465,2.228-0.697,3.52-0.697
			c0.793,0,1.586,0.068,2.38,0.204c0.793,0.136,1.552,0.352,2.278,0.646l-0.715,2.687c-0.476-0.227-1.025-0.408-1.648-0.544
			c-0.624-0.136-1.287-0.204-1.989-0.204c-1.769,0-3.122,0.556-4.063,1.666c-0.94,1.11-1.41,2.731-1.41,4.862
			c0,0.952,0.107,1.824,0.322,2.617c0.216,0.794,0.556,1.475,1.021,2.04c0.464,0.567,1.06,1.004,1.785,1.31s1.608,0.459,2.651,0.459
			c0.839,0,1.599-0.079,2.278-0.238c0.681-0.158,1.212-0.328,1.599-0.51l0.441,2.652c-0.182,0.113-0.441,0.221-0.781,0.322
			c-0.341,0.103-0.727,0.192-1.156,0.272c-0.432,0.079-0.891,0.147-1.377,0.204C336.916,325.799,336.445,325.828,335.992,325.828z"
			/>
		<path fill="#FFFFFF" d="M344.119,325.42v-25.84l3.161-0.544v9.044c0.589-0.227,1.218-0.402,1.888-0.527
			c0.668-0.124,1.33-0.187,1.988-0.187c1.405,0,2.572,0.198,3.502,0.595s1.672,0.952,2.227,1.666
			c0.556,0.714,0.947,1.569,1.174,2.567c0.227,0.997,0.34,2.097,0.34,3.298v9.928h-3.162v-9.248c0-1.088-0.074-2.018-0.221-2.788
			c-0.148-0.771-0.391-1.394-0.73-1.87c-0.341-0.476-0.795-0.821-1.361-1.037c-0.566-0.215-1.27-0.322-2.107-0.322
			c-0.34,0-0.691,0.022-1.055,0.067c-0.362,0.046-0.708,0.097-1.036,0.153c-0.329,0.057-0.624,0.119-0.884,0.187
			c-0.262,0.068-0.448,0.125-0.562,0.17v14.688H344.119z"/>
		<path fill="#FFFFFF" d="M369.244,307.298c1.27,0,2.34,0.165,3.213,0.493c0.873,0.329,1.576,0.794,2.108,1.394
			c0.532,0.602,0.912,1.315,1.14,2.143c0.226,0.827,0.34,1.739,0.34,2.736v11.051c-0.272,0.045-0.652,0.107-1.14,0.187
			c-0.487,0.08-1.036,0.153-1.649,0.221c-0.611,0.068-1.274,0.131-1.988,0.188s-1.423,0.085-2.125,0.085
			c-0.998,0-1.916-0.102-2.754-0.306c-0.839-0.204-1.564-0.527-2.176-0.97c-0.612-0.441-1.088-1.025-1.428-1.751
			c-0.341-0.725-0.511-1.598-0.511-2.617c0-0.975,0.198-1.813,0.595-2.517c0.396-0.702,0.936-1.269,1.615-1.7
			c0.68-0.43,1.473-0.748,2.38-0.952c0.907-0.203,1.858-0.306,2.856-0.306c0.316,0,0.646,0.018,0.986,0.051
			c0.34,0.034,0.662,0.08,0.969,0.137c0.306,0.057,0.572,0.107,0.799,0.152c0.227,0.046,0.385,0.08,0.477,0.103v-0.884
			c0-0.521-0.058-1.037-0.171-1.548c-0.113-0.51-0.317-0.963-0.612-1.359s-0.696-0.714-1.207-0.952
			c-0.51-0.238-1.172-0.357-1.988-0.357c-1.043,0-1.955,0.074-2.737,0.222s-1.366,0.301-1.751,0.459l-0.374-2.618
			c0.408-0.182,1.089-0.357,2.04-0.527C367.103,307.383,368.134,307.298,369.244,307.298z M369.517,323.142
			c0.748,0,1.411-0.017,1.989-0.051s1.059-0.096,1.445-0.187v-5.271c-0.228-0.113-0.596-0.209-1.105-0.289
			c-0.51-0.079-1.128-0.119-1.854-0.119c-0.476,0-0.98,0.034-1.513,0.103c-0.532,0.067-1.021,0.21-1.462,0.425
			c-0.441,0.216-0.811,0.51-1.105,0.884s-0.441,0.867-0.441,1.479c0,1.134,0.362,1.921,1.088,2.362
			C367.283,322.921,368.27,323.142,369.517,323.142z"/>
		<path fill="#FFFFFF" d="M382.844,304.544c-0.566,0-1.049-0.188-1.445-0.561c-0.396-0.374-0.594-0.879-0.594-1.514
			c0-0.634,0.197-1.139,0.594-1.513s0.879-0.562,1.445-0.562s1.049,0.188,1.445,0.562s0.596,0.879,0.596,1.513
			c0,0.635-0.199,1.14-0.596,1.514C383.893,304.356,383.41,304.544,382.844,304.544z M384.441,325.42h-3.161v-17.68h3.161V325.42z"
			/>
		<path fill="#FFFFFF" d="M389.883,308.25c0.725-0.182,1.688-0.374,2.889-0.578s2.584-0.306,4.148-0.306
			c1.405,0,2.572,0.198,3.502,0.595s1.672,0.952,2.227,1.666c0.556,0.714,0.947,1.569,1.174,2.567
			c0.227,0.997,0.34,2.097,0.34,3.298v9.928H401v-9.248c0-1.088-0.074-2.018-0.221-2.788c-0.148-0.771-0.391-1.394-0.73-1.87
			c-0.341-0.476-0.795-0.821-1.361-1.037c-0.566-0.215-1.27-0.322-2.107-0.322c-0.34,0-0.691,0.012-1.055,0.033
			c-0.362,0.023-0.708,0.052-1.036,0.085c-0.329,0.034-0.624,0.074-0.884,0.119c-0.262,0.046-0.448,0.08-0.562,0.103v14.926h-3.161
			V308.25z"/>
	</g>
	<path fill="#5B5B5B" d="M439.939,374.737h-56.592H268.346h-56.593h-25.465c0,24.863,25.465,25.768,25.465,25.768h56.593h115.001
		h56.592c0,0,25.467-0.904,25.467-25.768H439.939z"/>
</g>
<g>
	<path fill="#FDFADB" d="M84.935,361.061c-2.135,0-4.142-0.833-5.65-2.342c-1.51-1.508-2.342-3.516-2.342-5.652
		c0-2.135,0.832-4.142,2.342-5.649l8.308-8.309c1.507-1.509,3.514-2.341,5.65-2.341c2.135,0,4.142,0.832,5.652,2.341
		c3.114,3.117,3.115,8.188,0,11.305l-8.308,8.306C89.078,360.228,87.07,361.061,84.935,361.061z M93.243,340.995
		c-1.005,0-1.95,0.393-2.661,1.104l-8.309,8.309c-0.711,0.71-1.103,1.653-1.103,2.659s0.392,1.95,1.103,2.662
		c0.711,0.711,1.656,1.101,2.662,1.101c1.006,0,1.953-0.39,2.664-1.101l8.306-8.305c1.466-1.468,1.466-3.858,0-5.325
		C95.194,341.388,94.249,340.995,93.243,340.995z"/>
	<path fill="#FDFADB" d="M107.343,338.654c-2.135,0-4.143-0.832-5.652-2.343c-1.509-1.508-2.341-3.516-2.341-5.652
		c0-2.135,0.832-4.143,2.341-5.649l8.307-8.306c1.51-1.511,3.517-2.342,5.652-2.342s4.143,0.831,5.65,2.342
		c1.511,1.507,2.341,3.515,2.341,5.648c0,2.137-0.831,4.143-2.341,5.653l-8.305,8.306
		C111.485,337.822,109.478,338.654,107.343,338.654z M115.649,318.59c-1.005,0-1.951,0.393-2.662,1.102L104.681,328
		c-0.711,0.712-1.104,1.656-1.104,2.659c0,1.008,0.392,1.953,1.104,2.664c0.711,0.712,1.656,1.102,2.662,1.102
		c1.004,0,1.95-0.39,2.661-1.102l8.307-8.307c0.71-0.711,1.102-1.658,1.102-2.664c0-1.005-0.391-1.949-1.102-2.659
		C117.6,318.982,116.654,318.59,115.649,318.59z"/>
	<path fill="#FDFADB" d="M129.651,316.344c-2.135,0-4.142-0.833-5.651-2.344c-1.509-1.51-2.34-3.516-2.34-5.651
		c0-2.132,0.831-4.14,2.341-5.649l8.306-8.307c1.51-1.511,3.519-2.341,5.653-2.341s4.142,0.83,5.65,2.341
		c3.117,3.114,3.117,8.186,0,11.303l-8.307,8.306C133.795,315.511,131.787,316.344,129.651,316.344z M137.96,296.281
		c-1.005,0-1.952,0.392-2.663,1.1l-8.307,8.309c-0.709,0.71-1.101,1.655-1.101,2.659c0,1.006,0.392,1.951,1.101,2.662
		c0.712,0.712,1.657,1.104,2.661,1.104c1.006,0,1.951-0.393,2.662-1.104l8.308-8.305c1.466-1.469,1.468-3.858,0-5.325
		C139.91,296.673,138.965,296.281,137.96,296.281z"/>
	<path fill="#FDFADB" d="M95.697,344.419c-0.542,0-1.082-0.205-1.495-0.617c-0.825-0.827-0.825-2.164,0-2.99l9.265-9.266
		c0.826-0.823,2.163-0.823,2.989,0c0.826,0.827,0.826,2.164,0,2.992l-9.265,9.264C96.779,344.214,96.238,344.419,95.697,344.419z"/>
	<path fill="#FDFADB" d="M117.537,322.581c-0.541,0-1.082-0.206-1.496-0.621c-0.826-0.826-0.826-2.163,0-2.988l9.268-9.265
		c0.826-0.827,2.163-0.827,2.988,0c0.826,0.825,0.826,2.164,0,2.99l-9.266,9.263C118.618,322.375,118.077,322.581,117.537,322.581z"
		/>
</g>
<path fill="#FDFADB" d="M340.856,346H339v-1.855c0-0.992-0.803-1.796-1.794-1.796c-0.993,0-1.797,0.804-1.797,1.796V346h-1.855
	c-0.99,0-1.794,0.805-1.794,1.797c0,0.989,0.804,1.794,1.794,1.794h1.855v1.854c0,0.993,0.804,1.797,1.797,1.797
	c0.991,0,1.794-0.804,1.794-1.797v-1.854h1.856c0.991,0,1.794-0.805,1.794-1.794C342.65,346.805,341.848,346,340.856,346z"/>
<path fill="#FDFADB" d="M261.447,255.409h-1.856v-1.855c0-0.992-0.803-1.796-1.794-1.796c-0.993,0-1.797,0.804-1.797,1.796v1.855
	h-1.855c-0.99,0-1.794,0.805-1.794,1.797c0,0.989,0.804,1.794,1.794,1.794H256v1.854c0,0.993,0.804,1.797,1.797,1.797
	c0.991,0,1.794-0.804,1.794-1.797V259h1.856c0.991,0,1.794-0.805,1.794-1.794C263.241,256.214,262.438,255.409,261.447,255.409z"/>
<path fill="#FDFADB" d="M387.447,253h-1.856v-1.855c0-0.992-0.803-1.796-1.794-1.796c-0.993,0-1.797,0.804-1.797,1.796V253h-1.855
	c-0.99,0-1.794,0.805-1.794,1.797c0,0.989,0.804,1.794,1.794,1.794H382v1.854c0,0.993,0.804,1.797,1.797,1.797
	c0.991,0,1.794-0.804,1.794-1.797v-1.854h1.856c0.991,0,1.794-0.805,1.794-1.794C389.241,253.805,388.438,253,387.447,253z"/>
<path fill="#FDFADB" d="M131.447,56.855h-1.856V55c0-0.992-0.803-1.796-1.794-1.796c-0.993,0-1.797,0.804-1.797,1.796v1.855h-1.855
	c-0.99,0-1.794,0.805-1.794,1.797c0,0.989,0.804,1.794,1.794,1.794H126v1.854c0,0.993,0.804,1.797,1.797,1.797
	c0.991,0,1.794-0.804,1.794-1.797v-1.854h1.856c0.991,0,1.794-0.805,1.794-1.794C133.241,57.66,132.438,56.855,131.447,56.855z"/>
<path fill="#FDFADB" d="M536,483.409h-1.856v-1.855c0-0.992-0.803-1.796-1.794-1.796c-0.993,0-1.797,0.804-1.797,1.796v1.855h-1.855
	c-0.99,0-1.794,0.805-1.794,1.797c0,0.989,0.804,1.794,1.794,1.794h1.855v1.854c0,0.993,0.804,1.797,1.797,1.797
	c0.991,0,1.794-0.804,1.794-1.797V487H536c0.991,0,1.794-0.805,1.794-1.794C537.794,484.214,536.991,483.409,536,483.409z"/>
</svg>
